PCBNEW-LibModule-V1  
# encoding utf-8
Units mm
$INDEX
SON40P200X200X90-10N
$EndINDEX
$MODULE SON40P200X200X90-10N
Po 0 0 0 15 00000000 00000000 ~~
Li SON40P200X200X90-10N
Cd 
Sc 00000000
At SMD
Op 0 0 0
.SolderMask 0
.SolderPaste 0
T0 -0.364136 -1.68592 0.415018 0.415018 0 0.05 N V 21 "SON40P200X200X90-10N"
T1 -0.106965 1.70241 0.417472 0.417472 0 0.05 N V 21 "VAL**"
DS -1 1 -1 -1 0.127 24
DS -1 -1 1 -1 0.127 24
DS 1 -1 1 1 0.127 24
DS 1 1 -1 1 0.127 24
DS -1 -1.09 1 -1.09 0.127 21
DS -1 1.09 1 1.09 0.127 21
DS -1.61 1.25 -1.61 -1.25 0.05 26
DS -1.61 -1.25 1.61 -1.25 0.05 26
DS 1.61 -1.25 1.61 1.25 0.05 26
DS 1.61 1.25 -1.61 1.25 0.05 26
DC -1.746 -0.8 -1.646 -0.8 0.2 21
DC -0.603 -0.546 -0.503 -0.546 0.2 24
$PAD
Sh "1" R 0.84 0.22 0 0 0
At SMD N 00888000
.SolderMask 0
.SolderPaste 0
Ne 0 ""
Po -0.935 -0.8
$EndPAD
$PAD
Sh "2" R 0.84 0.22 0 0 0
At SMD N 00888000
.SolderMask 0
.SolderPaste 0
Ne 0 ""
Po -0.935 -0.4
$EndPAD
$PAD
Sh "3" R 0.84 0.22 0 0 0
At SMD N 00888000
.SolderMask 0
.SolderPaste 0
Ne 0 ""
Po -0.935 0
$EndPAD
$PAD
Sh "4" R 0.84 0.22 0 0 0
At SMD N 00888000
.SolderMask 0
.SolderPaste 0
Ne 0 ""
Po -0.935 0.4
$EndPAD
$PAD
Sh "5" R 0.84 0.22 0 0 0
At SMD N 00888000
.SolderMask 0
.SolderPaste 0
Ne 0 ""
Po -0.935 0.8
$EndPAD
$PAD
Sh "6" R 0.84 0.22 0 0 0
At SMD N 00888000
.SolderMask 0
.SolderPaste 0
Ne 0 ""
Po 0.935 0.8
$EndPAD
$PAD
Sh "7" R 0.84 0.22 0 0 0
At SMD N 00888000
.SolderMask 0
.SolderPaste 0
Ne 0 ""
Po 0.935 0.4
$EndPAD
$PAD
Sh "8" R 0.84 0.22 0 0 0
At SMD N 00888000
.SolderMask 0
.SolderPaste 0
Ne 0 ""
Po 0.935 0
$EndPAD
$PAD
Sh "9" R 0.84 0.22 0 0 0
At SMD N 00888000
.SolderMask 0
.SolderPaste 0
Ne 0 ""
Po 0.935 -0.4
$EndPAD
$PAD
Sh "10" R 0.84 0.22 0 0 0
At SMD N 00888000
.SolderMask 0
.SolderPaste 0
Ne 0 ""
Po 0.935 -0.8
$EndPAD
$EndMODULE SON40P200X200X90-10N
