EESchema Schematic File Version 2
LIBS:power
LIBS:device
LIBS:switches
LIBS:relays
LIBS:motors
LIBS:transistors
LIBS:conn
LIBS:linear
LIBS:regul
LIBS:74xx
LIBS:cmos4000
LIBS:adc-dac
LIBS:memory
LIBS:xilinx
LIBS:microcontrollers
LIBS:dsp
LIBS:microchip
LIBS:analog_switches
LIBS:motorola
LIBS:texas
LIBS:intel
LIBS:audio
LIBS:interface
LIBS:digital-audio
LIBS:philips
LIBS:display
LIBS:cypress
LIBS:siliconi
LIBS:opto
LIBS:atmel
LIBS:contrib
LIBS:valves
LIBS:freescale-ic
LIBS:FXOS8700CQ
LIBS:MMC3416
LIBS:magnetometer-cache
EELAYER 25 0
EELAYER END
$Descr A4 11693 8268
encoding utf-8
Sheet 1 1
Title ""
Date ""
Rev ""
Comp ""
Comment1 ""
Comment2 ""
Comment3 ""
Comment4 ""
$EndDescr
$Comp
L C C2
U 1 1 5AC5BC07
P 5500 4450
F 0 "C2" H 5525 4550 50  0000 L CNN
F 1 "4.7uF" H 5525 4350 50  0000 L CNN
F 2 "" H 5538 4300 50  0001 C CNN
F 3 "" H 5500 4450 50  0001 C CNN
	1    5500 4450
	1    0    0    -1  
$EndComp
$Comp
L C C3
U 1 1 5AC5BCC7
P 6450 3900
F 0 "C3" H 6475 4000 50  0000 L CNN
F 1 "0.1uF" H 6475 3800 50  0000 L CNN
F 2 "" H 6488 3750 50  0001 C CNN
F 3 "" H 6450 3900 50  0001 C CNN
	1    6450 3900
	1    0    0    -1  
$EndComp
$Comp
L GND #PWR01
U 1 1 5AC5C174
P 6450 4050
F 0 "#PWR01" H 6450 3800 50  0001 C CNN
F 1 "GND" H 6450 3900 50  0000 C CNN
F 2 "" H 6450 4050 50  0001 C CNN
F 3 "" H 6450 4050 50  0001 C CNN
	1    6450 4050
	1    0    0    -1  
$EndComp
Text GLabel 6700 3750 2    60   Input ~ 0
VDD
$Comp
L GND #PWR02
U 1 1 5AC6053F
P 6200 4100
F 0 "#PWR02" H 6200 3850 50  0001 C CNN
F 1 "GND" H 6200 3950 50  0000 C CNN
F 2 "" H 6200 4100 50  0001 C CNN
F 3 "" H 6200 4100 50  0001 C CNN
	1    6200 4100
	1    0    0    -1  
$EndComp
$Comp
L MMC3416 U1
U 1 1 5AEF96EE
P 5550 3800
F 0 "U1" H 6000 3400 60  0000 C CNN
F 1 "MMC3416" H 5550 3800 60  0000 C CNN
F 2 "footprint:MMC3416" H 5550 3800 60  0001 C CNN
F 3 "" H 5550 3800 60  0001 C CNN
	1    5550 3800
	1    0    0    -1  
$EndComp
$Comp
L GND #PWR03
U 1 1 5AEFA95A
P 5500 4600
F 0 "#PWR03" H 5500 4350 50  0001 C CNN
F 1 "GND" H 5500 4450 50  0000 C CNN
F 2 "" H 5500 4600 50  0001 C CNN
F 3 "" H 5500 4600 50  0001 C CNN
	1    5500 4600
	1    0    0    -1  
$EndComp
Text GLabel 4350 3900 0    60   Input ~ 0
VDD
$Comp
L C C1
U 1 1 5AEFAAEF
P 4600 4050
F 0 "C1" H 4625 4150 50  0000 L CNN
F 1 "0.1uF" H 4625 3950 50  0000 L CNN
F 2 "" H 4638 3900 50  0001 C CNN
F 3 "" H 4600 4050 50  0001 C CNN
	1    4600 4050
	1    0    0    -1  
$EndComp
$Comp
L GND #PWR04
U 1 1 5AEFAAF5
P 4600 4200
F 0 "#PWR04" H 4600 3950 50  0001 C CNN
F 1 "GND" H 4600 4050 50  0000 C CNN
F 2 "" H 4600 4200 50  0001 C CNN
F 3 "" H 4600 4200 50  0001 C CNN
	1    4600 4200
	1    0    0    -1  
$EndComp
Wire Wire Line
	6200 3750 6700 3750
Connection ~ 6450 3750
Wire Wire Line
	6200 3900 6200 3900
Wire Wire Line
	6200 3900 6200 4100
Wire Wire Line
	4350 3900 4950 3900
Connection ~ 4600 3900
$Comp
L R R1
U 1 1 5AEFB1ED
P 4500 3100
F 0 "R1" V 4580 3100 50  0000 C CNN
F 1 "10K" V 4500 3100 50  0000 C CNN
F 2 "" V 4430 3100 50  0001 C CNN
F 3 "" H 4500 3100 50  0001 C CNN
	1    4500 3100
	1    0    0    -1  
$EndComp
Text GLabel 4500 2350 0    60   Input ~ 0
VDD
Text GLabel 4450 2750 0    60   Input ~ 0
SCL
Text GLabel 4450 3250 0    60   Input ~ 0
SDA
$Comp
L R R2
U 1 1 5AEFB1F6
P 4650 2500
F 0 "R2" V 4730 2500 50  0000 C CNN
F 1 "10K" V 4650 2500 50  0000 C CNN
F 2 "" V 4580 2500 50  0001 C CNN
F 3 "" H 4650 2500 50  0001 C CNN
	1    4650 2500
	1    0    0    -1  
$EndComp
Wire Wire Line
	4500 2350 4650 2350
Wire Wire Line
	4450 3250 5350 3250
Wire Wire Line
	4450 2750 5500 2750
Connection ~ 4500 3250
Wire Wire Line
	4500 2950 4500 2350
Wire Wire Line
	4650 2750 4650 2650
Connection ~ 4650 2750
Wire Wire Line
	5500 2750 5500 3300
Wire Wire Line
	5350 3250 5350 3300
$EndSCHEMATC
