PCBNEW-LibModule-V1  
# encoding utf-8
Units mm
$INDEX
HRS_U.FL-R-SMT(01)
$EndINDEX
$MODULE HRS_U.FL-R-SMT(01)
Po 0 0 0 15 00000000 00000000 ~~
Li HRS_U.FL-R-SMT(01)
Cd 
Sc 00000000
At SMD
Op 0 0 0
.SolderMask 0
.SolderPaste 0
T0 -0.264515 -2.241 1.00164 1.00164 0 0.05 N V 21 "HRS_U.FL-R-SMT(01)"
T1 -0.025306 3.17714 1.00376 1.00376 0 0.05 N V 21 "VAL**"
DS -1.3 1.3 -1.3 0.87 0.127 24
DS -1.3 0.87 -1.3 -1.3 0.127 24
DS 1.3 -1.3 1.3 1.3 0.127 24
DC 0.01 -0.01 0.342412 -0.01 0.127 24
DC 0 -0.01 0.551541 -0.01 0.127 24
DS 1.38 -0.87 1.57 -0.87 0.127 24
DS 1.57 -0.87 1.57 0.87 0.127 24
DS 1.57 0.87 1.34 0.87 0.127 24
DS 1.34 0.9 1.34 0.91 0.127 24
DS -1.57 -0.87 -1.57 0.87 0.127 24
DS -1.57 -0.87 -1.33 -0.87 0.127 24
DS -1.33 -0.87 -1.33 -0.88 0.127 24
DS -2.3 -1.6 -2.3 2.4 0.05 24
DS -2.3 2.4 2.3 2.4 0.05 24
DS 2.3 2.4 2.3 -1.6 0.05 24
DS 2.3 -1.6 -2.3 -1.6 0.05 24
DS -1.3 1.3 1.3 1.3 0.127 24
DS -1.3 -1.3 1.3 -1.3 0.127 24
DS 1.3 -1.3 -1.3 -1.3 0.127 21
DS -1.57 0.87 -1.3 0.87 0.127 24
DP 0 0 0 0 4 0.381 24
Dl -0.904159 -1.15
Dl 0.9 -1.15
Dl 0.9 0.964436
Dl -0.904159 0.964436
$PAD
Sh "1" R 1.1 2.25 0 0 0
At SMD N 00888000
.SolderMask 0
.SolderPaste 0
Ne 0 ""
Po -1.475 0
$EndPAD
$PAD
Sh "2" R 1.1 2.25 0 0 0
At SMD N 00888000
.SolderMask 0
.SolderPaste 0
Ne 0 ""
Po 1.475 0
$EndPAD
$PAD
Sh "3" R 1.05 1.1 0 0 0
At SMD N 00888000
.SolderMask 0
.SolderPaste 0
Ne 0 ""
Po 0 1.55
$EndPAD
$EndMODULE HRS_U.FL-R-SMT(01)
