EESchema Schematic File Version 2
LIBS:power
LIBS:device
LIBS:switches
LIBS:relays
LIBS:motors
LIBS:transistors
LIBS:conn
LIBS:linear
LIBS:regul
LIBS:74xx
LIBS:cmos4000
LIBS:adc-dac
LIBS:memory
LIBS:xilinx
LIBS:microcontrollers
LIBS:dsp
LIBS:microchip
LIBS:analog_switches
LIBS:motorola
LIBS:texas
LIBS:intel
LIBS:audio
LIBS:interface
LIBS:digital-audio
LIBS:philips
LIBS:display
LIBS:cypress
LIBS:siliconi
LIBS:opto
LIBS:atmel
LIBS:contrib
LIBS:valves
LIBS:wisol_sfm10r1
LIBS:WSSFM10R1AT
LIBS:U.FL-R-SMT_01_
LIBS:WISOL_SFM10R1-cache
EELAYER 25 0
EELAYER END
$Descr A4 11693 8268
encoding utf-8
Sheet 1 1
Title ""
Date ""
Rev ""
Comp ""
Comment1 ""
Comment2 ""
Comment3 ""
Comment4 ""
$EndDescr
$Comp
L WISOL_SFM10R1 U4
U 1 1 582A58A9
P 5000 3200
F 0 "U4" H 5000 3250 50  0000 C CNN
F 1 "WISOL_SFM10R1" H 5000 3350 50  0000 C CNN
F 2 "WSSFM10R1AT:XCVR_WSSFM10R1AT" H 5000 4100 50  0001 C CNN
F 3 "file:///D:/Aerea/KicadLibrary/datasheets/%5BWISOL%5DDS_WSSFM10R1AT_REV06_161031_Internal.pdf" H 5000 4000 50  0001 C CNN
	1    5000 3200
	1    0    0    -1  
$EndComp
$Comp
L R R9
U 1 1 5AC0B5E0
P 6100 3750
F 0 "R9" V 6180 3750 50  0000 C CNN
F 1 "1K" V 6100 3750 50  0000 C CNN
F 2 "Resistors_SMD:R_0603" V 6030 3750 50  0001 C CNN
F 3 "" H 6100 3750 50  0001 C CNN
	1    6100 3750
	1    0    0    -1  
$EndComp
$Comp
L R R10
U 1 1 5AC0B647
P 6400 3750
F 0 "R10" V 6480 3750 50  0000 C CNN
F 1 "1K" V 6400 3750 50  0000 C CNN
F 2 "Resistors_SMD:R_0603" V 6330 3750 50  0001 C CNN
F 3 "" H 6400 3750 50  0001 C CNN
	1    6400 3750
	1    0    0    -1  
$EndComp
$Comp
L LED D3
U 1 1 5AC0B6DB
P 6100 4050
F 0 "D3" H 6100 4150 50  0000 C CNN
F 1 "LED" H 6100 3950 50  0000 C CNN
F 2 "LEDs:LED_0603" H 6100 4050 50  0001 C CNN
F 3 "" H 6100 4050 50  0001 C CNN
	1    6100 4050
	0    -1   -1   0   
$EndComp
$Comp
L LED D4
U 1 1 5AC0B73C
P 6400 4050
F 0 "D4" H 6400 4150 50  0000 C CNN
F 1 "LED" H 6400 3950 50  0000 C CNN
F 2 "LEDs:LED_0603" H 6400 4050 50  0001 C CNN
F 3 "" H 6400 4050 50  0001 C CNN
	1    6400 4050
	0    -1   -1   0   
$EndComp
$Comp
L R R4
U 1 1 5AC0E5FD
P 3250 2200
F 0 "R4" V 3330 2200 50  0000 C CNN
F 1 "0" V 3250 2200 50  0000 C CNN
F 2 "Resistors_SMD:R_0603" V 3180 2200 50  0001 C CNN
F 3 "" H 3250 2200 50  0001 C CNN
	1    3250 2200
	0    1    1    0   
$EndComp
$Comp
L R R5
U 1 1 5AC0E65C
P 3300 2700
F 0 "R5" V 3380 2700 50  0000 C CNN
F 1 "0" V 3300 2700 50  0000 C CNN
F 2 "Resistors_SMD:R_0603" V 3230 2700 50  0001 C CNN
F 3 "" H 3300 2700 50  0001 C CNN
	1    3300 2700
	0    1    1    0   
$EndComp
$Comp
L R R3
U 1 1 5AC10633
P 3050 2850
F 0 "R3" V 3130 2850 50  0000 C CNN
F 1 "R" V 3050 2850 50  0000 C CNN
F 2 "Resistors_SMD:R_0603" V 2980 2850 50  0001 C CNN
F 3 "" H 3050 2850 50  0001 C CNN
	1    3050 2850
	1    0    0    -1  
$EndComp
$Comp
L R R2
U 1 1 5AC10672
P 2800 2700
F 0 "R2" V 2880 2700 50  0000 C CNN
F 1 "R" V 2800 2700 50  0000 C CNN
F 2 "Resistors_SMD:R_0603" V 2730 2700 50  0001 C CNN
F 3 "" H 2800 2700 50  0001 C CNN
	1    2800 2700
	0    1    1    0   
$EndComp
$Comp
L R R1
U 1 1 5AC106C5
P 2550 2850
F 0 "R1" V 2630 2850 50  0000 C CNN
F 1 "R" V 2550 2850 50  0000 C CNN
F 2 "Resistors_SMD:R_0603" V 2480 2850 50  0001 C CNN
F 3 "" H 2550 2850 50  0001 C CNN
	1    2550 2850
	1    0    0    -1  
$EndComp
$Comp
L GND #PWR01
U 1 1 5AC10704
P 2550 3000
F 0 "#PWR01" H 2550 2750 50  0001 C CNN
F 1 "GND" H 2550 2850 50  0000 C CNN
F 2 "" H 2550 3000 50  0001 C CNN
F 3 "" H 2550 3000 50  0001 C CNN
	1    2550 3000
	1    0    0    -1  
$EndComp
$Comp
L GND #PWR02
U 1 1 5AC10734
P 3050 3000
F 0 "#PWR02" H 3050 2750 50  0001 C CNN
F 1 "GND" H 3050 2850 50  0000 C CNN
F 2 "" H 3050 3000 50  0001 C CNN
F 3 "" H 3050 3000 50  0001 C CNN
	1    3050 3000
	1    0    0    -1  
$EndComp
$Comp
L GND #PWR03
U 1 1 5AC1080C
P 6100 4300
F 0 "#PWR03" H 6100 4050 50  0001 C CNN
F 1 "GND" H 6100 4150 50  0000 C CNN
F 2 "" H 6100 4300 50  0001 C CNN
F 3 "" H 6100 4300 50  0001 C CNN
	1    6100 4300
	1    0    0    -1  
$EndComp
$Comp
L GND #PWR04
U 1 1 5AC1089E
P 6400 4300
F 0 "#PWR04" H 6400 4050 50  0001 C CNN
F 1 "GND" H 6400 4150 50  0000 C CNN
F 2 "" H 6400 4300 50  0001 C CNN
F 3 "" H 6400 4300 50  0001 C CNN
	1    6400 4300
	1    0    0    -1  
$EndComp
$Comp
L PWR_FLAG #FLG05
U 1 1 5AC11391
P 1500 1600
F 0 "#FLG05" H 1500 1675 50  0001 C CNN
F 1 "PWR_FLAG" H 1500 1750 50  0000 C CNN
F 2 "" H 1500 1600 50  0001 C CNN
F 3 "" H 1500 1600 50  0001 C CNN
	1    1500 1600
	1    0    0    -1  
$EndComp
$Comp
L PWR_FLAG #FLG06
U 1 1 5AC11459
P 1900 1600
F 0 "#FLG06" H 1900 1675 50  0001 C CNN
F 1 "PWR_FLAG" H 1900 1750 50  0000 C CNN
F 2 "" H 1900 1600 50  0001 C CNN
F 3 "" H 1900 1600 50  0001 C CNN
	1    1900 1600
	1    0    0    -1  
$EndComp
$Comp
L GND #PWR07
U 1 1 5AC11481
P 1500 1800
F 0 "#PWR07" H 1500 1550 50  0001 C CNN
F 1 "GND" H 1500 1650 50  0000 C CNN
F 2 "" H 1500 1800 50  0001 C CNN
F 3 "" H 1500 1800 50  0001 C CNN
	1    1500 1800
	1    0    0    -1  
$EndComp
$Comp
L VCC #PWR08
U 1 1 5AC114A9
P 1900 1800
F 0 "#PWR08" H 1900 1650 50  0001 C CNN
F 1 "VCC" H 1900 1950 50  0000 C CNN
F 2 "" H 1900 1800 50  0001 C CNN
F 3 "" H 1900 1800 50  0001 C CNN
	1    1900 1800
	-1   0    0    1   
$EndComp
$Comp
L GND #PWR09
U 1 1 5AC11600
P 4050 2500
F 0 "#PWR09" H 4050 2250 50  0001 C CNN
F 1 "GND" H 4050 2350 50  0000 C CNN
F 2 "" H 4050 2500 50  0001 C CNN
F 3 "" H 4050 2500 50  0001 C CNN
	1    4050 2500
	0    1    1    0   
$EndComp
$Comp
L GND #PWR010
U 1 1 5AC11628
P 3950 2800
F 0 "#PWR010" H 3950 2550 50  0001 C CNN
F 1 "GND" H 3950 2650 50  0000 C CNN
F 2 "" H 3950 2800 50  0001 C CNN
F 3 "" H 3950 2800 50  0001 C CNN
	1    3950 2800
	0    1    1    0   
$EndComp
$Comp
L GND #PWR011
U 1 1 5AC11650
P 4050 3400
F 0 "#PWR011" H 4050 3150 50  0001 C CNN
F 1 "GND" H 4050 3250 50  0000 C CNN
F 2 "" H 4050 3400 50  0001 C CNN
F 3 "" H 4050 3400 50  0001 C CNN
	1    4050 3400
	0    1    1    0   
$EndComp
$Comp
L GND #PWR012
U 1 1 5AC11678
P 3600 3800
F 0 "#PWR012" H 3600 3550 50  0001 C CNN
F 1 "GND" H 3600 3650 50  0000 C CNN
F 2 "" H 3600 3800 50  0001 C CNN
F 3 "" H 3600 3800 50  0001 C CNN
	1    3600 3800
	1    0    0    -1  
$EndComp
$Comp
L VCC #PWR013
U 1 1 5AC116A0
P 3400 3500
F 0 "#PWR013" H 3400 3350 50  0001 C CNN
F 1 "VCC" H 3400 3650 50  0000 C CNN
F 2 "" H 3400 3500 50  0001 C CNN
F 3 "" H 3400 3500 50  0001 C CNN
	1    3400 3500
	0    -1   -1   0   
$EndComp
$Comp
L GND #PWR014
U 1 1 5AC116FC
P 6050 2700
F 0 "#PWR014" H 6050 2450 50  0001 C CNN
F 1 "GND" H 6050 2550 50  0000 C CNN
F 2 "" H 6050 2700 50  0001 C CNN
F 3 "" H 6050 2700 50  0001 C CNN
	1    6050 2700
	0    -1   -1   0   
$EndComp
NoConn ~ 5850 3000
NoConn ~ 5850 3100
NoConn ~ 5850 3200
NoConn ~ 5850 3300
NoConn ~ 5850 3400
$Comp
L U.FL-R-SMT(01) J1
U 1 1 5AC11DCA
P 2600 2300
F 0 "J1" H 2449 2461 50  0000 L BNN
F 1 "U.FL-R-SMT(01)" H 2429 2079 50  0000 L BNN
F 2 "U.FL-R-SMT_01_:HRS_U.FL-R-SMT(01)" H 2600 2300 50  0001 L BNN
F 3 "None" H 2600 2300 50  0001 L BNN
F 4 "Hirose" H 2600 2300 50  0001 L BNN "Field4"
F 5 "U.FL-R-SMT(01)" H 2600 2300 50  0001 L BNN "Field5"
F 6 "0.84 USD" H 2600 2300 50  0001 L BNN "Field6"
F 7 "U.FL Series 6 Ghz 50 Ohm Ultra-small SMT Coaxial Cable Receptacle" H 2600 2300 50  0001 L BNN "Field7"
F 8 "Good" H 2600 2300 50  0001 L BNN "Field8"
	1    2600 2300
	-1   0    0    -1  
$EndComp
$Comp
L GND #PWR015
U 1 1 5AC11F48
P 3050 2450
F 0 "#PWR015" H 3050 2200 50  0001 C CNN
F 1 "GND" H 3050 2300 50  0000 C CNN
F 2 "" H 3050 2450 50  0001 C CNN
F 3 "" H 3050 2450 50  0001 C CNN
	1    3050 2450
	1    0    0    -1  
$EndComp
$Comp
L R R6
U 1 1 5AC11FDA
P 4400 4400
F 0 "R6" V 4480 4400 50  0000 C CNN
F 1 "100K" V 4400 4400 50  0000 C CNN
F 2 "Resistors_SMD:R_0603" V 4330 4400 50  0001 C CNN
F 3 "" H 4400 4400 50  0001 C CNN
	1    4400 4400
	1    0    0    -1  
$EndComp
$Comp
L C C1
U 1 1 5AC12021
P 4400 4800
F 0 "C1" H 4425 4900 50  0000 L CNN
F 1 "100n" H 4425 4700 50  0000 L CNN
F 2 "Capacitors_SMD:C_0603" H 4438 4650 50  0001 C CNN
F 3 "" H 4400 4800 50  0001 C CNN
	1    4400 4800
	1    0    0    -1  
$EndComp
$Comp
L VCC #PWR016
U 1 1 5AC121D4
P 4400 4200
F 0 "#PWR016" H 4400 4050 50  0001 C CNN
F 1 "VCC" H 4400 4350 50  0000 C CNN
F 2 "" H 4400 4200 50  0001 C CNN
F 3 "" H 4400 4200 50  0001 C CNN
	1    4400 4200
	1    0    0    -1  
$EndComp
$Comp
L GND #PWR017
U 1 1 5AC122C2
P 4400 5000
F 0 "#PWR017" H 4400 4750 50  0001 C CNN
F 1 "GND" H 4400 4850 50  0000 C CNN
F 2 "" H 4400 5000 50  0001 C CNN
F 3 "" H 4400 5000 50  0001 C CNN
	1    4400 5000
	1    0    0    -1  
$EndComp
$Comp
L R R7
U 1 1 5AC12458
P 4900 4350
F 0 "R7" V 4800 4350 50  0000 C CNN
F 1 "1K" V 4900 4350 50  0000 C CNN
F 2 "Resistors_SMD:R_0603" V 4830 4350 50  0001 C CNN
F 3 "" H 4900 4350 50  0001 C CNN
	1    4900 4350
	1    0    0    -1  
$EndComp
$Comp
L LED D1
U 1 1 5AC1245F
P 4900 4650
F 0 "D1" H 4900 4750 50  0000 C CNN
F 1 "LED" H 4900 4550 50  0000 C CNN
F 2 "LEDs:LED_0603" H 4900 4650 50  0001 C CNN
F 3 "" H 4900 4650 50  0001 C CNN
	1    4900 4650
	0    -1   -1   0   
$EndComp
$Comp
L GND #PWR018
U 1 1 5AC12466
P 4900 4900
F 0 "#PWR018" H 4900 4650 50  0001 C CNN
F 1 "GND" H 4900 4750 50  0000 C CNN
F 2 "" H 4900 4900 50  0001 C CNN
F 3 "" H 4900 4900 50  0001 C CNN
	1    4900 4900
	1    0    0    -1  
$EndComp
$Comp
L R R8
U 1 1 5AC124F5
P 5000 4350
F 0 "R8" V 5080 4350 50  0000 C CNN
F 1 "1K" V 5000 4350 50  0000 C CNN
F 2 "Resistors_SMD:R_0603" V 4930 4350 50  0001 C CNN
F 3 "" H 5000 4350 50  0001 C CNN
	1    5000 4350
	1    0    0    -1  
$EndComp
$Comp
L LED D2
U 1 1 5AC124FC
P 5000 4650
F 0 "D2" H 5000 4550 50  0000 C CNN
F 1 "LED" H 5000 4750 50  0000 C CNN
F 2 "LEDs:LED_0603" H 5000 4650 50  0001 C CNN
F 3 "" H 5000 4650 50  0001 C CNN
	1    5000 4650
	0    -1   -1   0   
$EndComp
$Comp
L GND #PWR019
U 1 1 5AC12503
P 5000 4900
F 0 "#PWR019" H 5000 4650 50  0001 C CNN
F 1 "GND" H 5000 4750 50  0000 C CNN
F 2 "" H 5000 4900 50  0001 C CNN
F 3 "" H 5000 4900 50  0001 C CNN
	1    5000 4900
	1    0    0    -1  
$EndComp
Text GLabel 5300 4300 2    60   Input ~ 0
wake
Text GLabel 5300 4450 2    60   Input ~ 0
RX
Text GLabel 5300 4600 2    60   Input ~ 0
TX
NoConn ~ 4800 4150
NoConn ~ 4150 3300
NoConn ~ 4150 3200
NoConn ~ 4150 3100
NoConn ~ 4150 3000
Text Label 2100 2700 0    60   ~ 0
antenne
$Comp
L C C?
U 1 1 5AC1F72D
P 3750 3650
F 0 "C?" H 3775 3750 50  0000 L CNN
F 1 "100n" H 3775 3550 50  0000 L CNN
F 2 "" H 3788 3500 50  0001 C CNN
F 3 "" H 3750 3650 50  0001 C CNN
	1    3750 3650
	1    0    0    -1  
$EndComp
$Comp
L C C?
U 1 1 5AC1F7CC
P 3450 3650
F 0 "C?" H 3475 3750 50  0000 L CNN
F 1 "10u" H 3475 3550 50  0000 L CNN
F 2 "" H 3488 3500 50  0001 C CNN
F 3 "" H 3450 3650 50  0001 C CNN
	1    3450 3650
	1    0    0    -1  
$EndComp
Connection ~ 3600 3800
Connection ~ 3750 3800
Wire Wire Line
	3450 3800 3900 3800
Wire Wire Line
	3900 3800 3900 3600
Connection ~ 3750 3500
Connection ~ 3450 3500
Connection ~ 2550 2700
Wire Wire Line
	5300 4150 5300 4300
Wire Wire Line
	5200 4450 5300 4450
Wire Wire Line
	5200 4150 5200 4450
Wire Wire Line
	5100 4600 5300 4600
Wire Wire Line
	5100 4150 5100 4600
Wire Wire Line
	4900 4200 4900 4150
Wire Wire Line
	5000 4200 5000 4150
Wire Wire Line
	5000 4800 5000 4900
Wire Wire Line
	4900 4800 4900 4900
Wire Wire Line
	4400 4950 4400 5000
Wire Wire Line
	4400 4250 4400 4200
Connection ~ 4400 4600
Wire Wire Line
	4400 4550 4400 4650
Wire Wire Line
	4400 4600 4700 4600
Wire Wire Line
	4700 4600 4700 4150
Wire Wire Line
	3050 2400 3050 2450
Wire Wire Line
	3000 2400 3050 2400
Wire Wire Line
	3100 2200 3000 2200
Wire Wire Line
	3550 2700 3450 2700
Connection ~ 3050 2700
Wire Wire Line
	2950 2700 3150 2700
Wire Wire Line
	1500 1800 1500 1600
Wire Wire Line
	1900 1800 1900 1600
Wire Wire Line
	3400 3500 4150 3500
Wire Wire Line
	4150 3400 4050 3400
Wire Wire Line
	3900 3600 4150 3600
Connection ~ 4050 2800
Wire Wire Line
	4050 2900 4150 2900
Wire Wire Line
	3950 2800 4150 2800
Wire Wire Line
	4050 2700 4050 2900
Wire Wire Line
	4150 2700 4050 2700
Wire Wire Line
	4150 2500 4050 2500
Connection ~ 5950 2700
Wire Wire Line
	5950 2800 5850 2800
Connection ~ 5950 2600
Wire Wire Line
	5850 2700 6050 2700
Wire Wire Line
	5950 2600 5850 2600
Wire Wire Line
	5950 2500 5950 2800
Wire Wire Line
	5850 2500 5950 2500
Wire Wire Line
	2100 2700 2650 2700
Connection ~ 3550 2600
Wire Wire Line
	3400 2200 3550 2200
Wire Wire Line
	3550 2200 3550 2700
Wire Wire Line
	6400 4200 6400 4300
Wire Wire Line
	6100 4200 6100 4300
Wire Wire Line
	6400 3500 6400 3600
Wire Wire Line
	5850 3600 6100 3600
Wire Wire Line
	5850 3500 6400 3500
Wire Wire Line
	3550 2600 4150 2600
$EndSCHEMATC
