PCBNEW-LibModule-V1  
# encoding utf-8
Units mm
$INDEX
QFP50P900X900X160-48N
$EndINDEX
$MODULE QFP50P900X900X160-48N
Po 0 0 0 15 00000000 00000000 ~~
Li QFP50P900X900X160-48N
Cd 
Sc 00000000
At SMD
Op 0 0 0
.SolderMask 0
.SolderPaste 0
T0 3.10805 -35.0589 7.16326 7.16326 0 0.05 N V 21 "QFP50P900X900X160-48N"
T1 7.62969 36.9372 7.13974 7.13974 0 0.05 N V 21 "VAL**"
DS -3.2004 -3.5052 -3.5052 -3.5052 0.1524 21
DS 3.5052 -3.2004 3.5052 -3.5052 0.1524 21
DS 3.2004 3.5052 3.5052 3.5052 0.1524 21
DS -3.5052 3.5052 -3.2004 3.5052 0.1524 21
DS 3.5052 3.5052 3.5052 3.2004 0.1524 21
DS 3.5052 -3.5052 3.2004 -3.5052 0.1524 21
DS -3.5052 -3.5052 -3.5052 -3.2004 0.1524 21
DS -3.5052 3.2004 -3.5052 3.5052 0.1524 21
DS 2.6416 -3.5052 2.8702 -3.5052 0 24
DS 2.8702 -3.5052 2.8702 -4.4958 0 24
DS 2.8702 -4.4958 2.6416 -4.4958 0 24
DS 2.6416 -4.4958 2.6416 -3.5052 0 24
DS 2.1336 -3.5052 2.3622 -3.5052 0 24
DS 2.3622 -3.5052 2.3622 -4.4958 0 24
DS 2.3622 -4.4958 2.1336 -4.4958 0 24
DS 2.1336 -4.4958 2.1336 -3.5052 0 24
DS 1.651 -3.5052 1.8542 -3.5052 0 24
DS 1.8542 -3.5052 1.8542 -4.4958 0 24
DS 1.8542 -4.4958 1.651 -4.4958 0 24
DS 1.651 -4.4958 1.651 -3.5052 0 24
DS 1.143 -3.5052 1.3716 -3.5052 0 24
DS 1.3716 -3.5052 1.3716 -4.4958 0 24
DS 1.3716 -4.4958 1.143 -4.4958 0 24
DS 1.143 -4.4958 1.143 -3.5052 0 24
DS 0.635 -3.5052 0.8636 -3.5052 0 24
DS 0.8636 -3.5052 0.8636 -4.4958 0 24
DS 0.8636 -4.4958 0.635 -4.4958 0 24
DS 0.635 -4.4958 0.635 -3.5052 0 24
DS 0.1524 -3.5052 0.3556 -3.5052 0 24
DS 0.3556 -3.5052 0.3556 -4.4958 0 24
DS 0.3556 -4.4958 0.1524 -4.4958 0 24
DS 0.1524 -4.4958 0.1524 -3.5052 0 24
DS -0.3556 -3.5052 -0.1524 -3.5052 0 24
DS -0.1524 -3.5052 -0.1524 -4.4958 0 24
DS -0.1524 -4.4958 -0.3556 -4.4958 0 24
DS -0.3556 -4.4958 -0.3556 -3.5052 0 24
DS -0.8636 -3.5052 -0.635 -3.5052 0 24
DS -0.635 -3.5052 -0.635 -4.4958 0 24
DS -0.635 -4.4958 -0.8636 -4.4958 0 24
DS -0.8636 -4.4958 -0.8636 -3.5052 0 24
DS -1.3716 -3.5052 -1.143 -3.5052 0 24
DS -1.143 -3.5052 -1.143 -4.4958 0 24
DS -1.143 -4.4958 -1.3716 -4.4958 0 24
DS -1.3716 -4.4958 -1.3716 -3.5052 0 24
DS -1.8542 -3.5052 -1.651 -3.5052 0 24
DS -1.651 -3.5052 -1.651 -4.4958 0 24
DS -1.651 -4.4958 -1.8542 -4.4958 0 24
DS -1.8542 -4.4958 -1.8542 -3.5052 0 24
DS -2.3622 -3.5052 -2.2352 -3.5052 0 24
DS -2.2352 -3.5052 -2.1336 -3.5052 0 24
DS -2.1336 -3.5052 -2.1336 -4.4958 0 24
DS -2.1336 -4.4958 -2.3622 -4.4958 0 24
DS -2.3622 -4.4958 -2.3622 -3.5052 0 24
DS -2.8702 -3.5052 -2.6416 -3.5052 0 24
DS -2.6416 -3.5052 -2.6416 -4.4958 0 24
DS -2.6416 -4.4958 -2.8702 -4.4958 0 24
DS -2.8702 -4.4958 -2.8702 -3.5052 0 24
DS -3.5052 -2.6416 -3.5052 -2.8702 0 24
DS -3.5052 -2.8702 -4.4958 -2.8702 0 24
DS -4.4958 -2.8702 -4.4958 -2.6416 0 24
DS -4.4958 -2.6416 -3.5052 -2.6416 0 24
DS -3.5052 -2.1336 -3.5052 -2.2352 0 24
DS -3.5052 -2.2352 -3.5052 -2.3622 0 24
DS -3.5052 -2.3622 -4.4958 -2.3622 0 24
DS -4.4958 -2.3622 -4.4958 -2.1336 0 24
DS -4.4958 -2.1336 -3.5052 -2.1336 0 24
DS -3.5052 -1.651 -3.5052 -1.8542 0 24
DS -3.5052 -1.8542 -4.4958 -1.8542 0 24
DS -4.4958 -1.8542 -4.4958 -1.651 0 24
DS -4.4958 -1.651 -3.5052 -1.651 0 24
DS -3.5052 -1.143 -3.5052 -1.3716 0 24
DS -3.5052 -1.3716 -4.4958 -1.3716 0 24
DS -4.4958 -1.3716 -4.4958 -1.143 0 24
DS -4.4958 -1.143 -3.5052 -1.143 0 24
DS -3.5052 -0.635 -3.5052 -0.8636 0 24
DS -3.5052 -0.8636 -4.4958 -0.8636 0 24
DS -4.4958 -0.8636 -4.4958 -0.635 0 24
DS -4.4958 -0.635 -3.5052 -0.635 0 24
DS -3.5052 -0.1524 -3.5052 -0.3556 0 24
DS -3.5052 -0.3556 -4.4958 -0.3556 0 24
DS -4.4958 -0.3556 -4.4958 -0.1524 0 24
DS -4.4958 -0.1524 -3.5052 -0.1524 0 24
DS -3.5052 0.3556 -3.5052 0.1524 0 24
DS -3.5052 0.1524 -4.4958 0.1524 0 24
DS -4.4958 0.1524 -4.4958 0.3556 0 24
DS -4.4958 0.3556 -3.5052 0.3556 0 24
DS -3.5052 0.8636 -3.5052 0.635 0 24
DS -3.5052 0.635 -4.4958 0.635 0 24
DS -4.4958 0.635 -4.4958 0.8636 0 24
DS -4.4958 0.8636 -3.5052 0.8636 0 24
DS -3.5052 1.3716 -3.5052 1.143 0 24
DS -3.5052 1.143 -4.4958 1.143 0 24
DS -4.4958 1.143 -4.4958 1.3716 0 24
DS -4.4958 1.3716 -3.5052 1.3716 0 24
DS -3.5052 1.8542 -3.5052 1.651 0 24
DS -3.5052 1.651 -4.4958 1.651 0 24
DS -4.4958 1.651 -4.4958 1.8542 0 24
DS -4.4958 1.8542 -3.5052 1.8542 0 24
DS -3.5052 2.3622 -3.5052 2.1336 0 24
DS -3.5052 2.1336 -4.4958 2.1336 0 24
DS -4.4958 2.1336 -4.4958 2.3622 0 24
DS -4.4958 2.3622 -3.5052 2.3622 0 24
DS -3.5052 2.8702 -3.5052 2.6416 0 24
DS -3.5052 2.6416 -4.4958 2.6416 0 24
DS -4.4958 2.6416 -4.4958 2.8702 0 24
DS -4.4958 2.8702 -3.5052 2.8702 0 24
DS -2.6416 3.5052 -2.8702 3.5052 0 24
DS -2.8702 3.5052 -2.8702 4.4958 0 24
DS -2.8702 4.4958 -2.6416 4.4958 0 24
DS -2.6416 4.4958 -2.6416 3.5052 0 24
DS -2.1336 3.5052 -2.3622 3.5052 0 24
DS -2.3622 3.5052 -2.3622 4.4958 0 24
DS -2.3622 4.4958 -2.1336 4.4958 0 24
DS -2.1336 4.4958 -2.1336 3.5052 0 24
DS -1.651 3.5052 -1.8542 3.5052 0 24
DS -1.8542 3.5052 -1.8542 4.4958 0 24
DS -1.8542 4.4958 -1.651 4.4958 0 24
DS -1.651 4.4958 -1.651 3.5052 0 24
DS -1.143 3.5052 -1.3716 3.5052 0 24
DS -1.3716 3.5052 -1.3716 4.4958 0 24
DS -1.3716 4.4958 -1.143 4.4958 0 24
DS -1.143 4.4958 -1.143 3.5052 0 24
DS -0.635 3.5052 -0.8636 3.5052 0 24
DS -0.8636 3.5052 -0.8636 4.4958 0 24
DS -0.8636 4.4958 -0.635 4.4958 0 24
DS -0.635 4.4958 -0.635 3.5052 0 24
DS -0.1524 3.5052 -0.3556 3.5052 0 24
DS -0.3556 3.5052 -0.3556 4.4958 0 24
DS -0.3556 4.4958 -0.1524 4.4958 0 24
DS -0.1524 4.4958 -0.1524 3.5052 0 24
DS 0.3556 3.5052 0.1524 3.5052 0 24
DS 0.1524 3.5052 0.1524 4.4958 0 24
DS 0.1524 4.4958 0.3556 4.4958 0 24
DS 0.3556 4.4958 0.3556 3.5052 0 24
DS 0.8636 3.5052 0.635 3.5052 0 24
DS 0.635 3.5052 0.635 4.4958 0 24
DS 0.635 4.4958 0.8636 4.4958 0 24
DS 0.8636 4.4958 0.8636 3.5052 0 24
DS 1.3716 3.5052 1.143 3.5052 0 24
DS 1.143 3.5052 1.143 4.4958 0 24
DS 1.143 4.4958 1.3716 4.4958 0 24
DS 1.3716 4.4958 1.3716 3.5052 0 24
DS 1.8542 3.5052 1.651 3.5052 0 24
DS 1.651 3.5052 1.651 4.4958 0 24
DS 1.651 4.4958 1.8542 4.4958 0 24
DS 1.8542 4.4958 1.8542 3.5052 0 24
DS 2.3622 3.5052 2.1336 3.5052 0 24
DS 2.1336 3.5052 2.1336 4.4958 0 24
DS 2.1336 4.4958 2.3622 4.4958 0 24
DS 2.3622 4.4958 2.3622 3.5052 0 24
DS 2.8702 3.5052 2.6416 3.5052 0 24
DS 2.6416 3.5052 2.6416 4.4958 0 24
DS 2.6416 4.4958 2.8702 4.4958 0 24
DS 2.8702 4.4958 2.8702 3.5052 0 24
DS 3.5052 2.6416 3.5052 2.8702 0 24
DS 3.5052 2.8702 4.4958 2.8702 0 24
DS 4.4958 2.8702 4.4958 2.6416 0 24
DS 4.4958 2.6416 3.5052 2.6416 0 24
DS 3.5052 2.1336 3.5052 2.3622 0 24
DS 3.5052 2.3622 4.4958 2.3622 0 24
DS 4.4958 2.3622 4.4958 2.1336 0 24
DS 4.4958 2.1336 3.5052 2.1336 0 24
DS 3.5052 1.651 3.5052 1.8542 0 24
DS 3.5052 1.8542 4.4958 1.8542 0 24
DS 4.4958 1.8542 4.4958 1.651 0 24
DS 4.4958 1.651 3.5052 1.651 0 24
DS 3.5052 1.143 3.5052 1.3716 0 24
DS 3.5052 1.3716 4.4958 1.3716 0 24
DS 4.4958 1.3716 4.4958 1.143 0 24
DS 4.4958 1.143 3.5052 1.143 0 24
DS 3.5052 0.635 3.5052 0.8636 0 24
DS 3.5052 0.8636 4.4958 0.8636 0 24
DS 4.4958 0.8636 4.4958 0.635 0 24
DS 4.4958 0.635 3.5052 0.635 0 24
DS 3.5052 0.1524 3.5052 0.3556 0 24
DS 3.5052 0.3556 4.4958 0.3556 0 24
DS 4.4958 0.3556 4.4958 0.1524 0 24
DS 4.4958 0.1524 3.5052 0.1524 0 24
DS 3.5052 -0.3556 3.5052 -0.1524 0 24
DS 3.5052 -0.1524 4.4958 -0.1524 0 24
DS 4.4958 -0.1524 4.4958 -0.3556 0 24
DS 4.4958 -0.3556 3.5052 -0.3556 0 24
DS 3.5052 -0.8636 3.5052 -0.635 0 24
DS 3.5052 -0.635 4.4958 -0.635 0 24
DS 4.4958 -0.635 4.4958 -0.8636 0 24
DS 4.4958 -0.8636 3.5052 -0.8636 0 24
DS 3.5052 -1.3716 3.5052 -1.143 0 24
DS 3.5052 -1.143 4.4958 -1.143 0 24
DS 4.4958 -1.143 4.4958 -1.3716 0 24
DS 4.4958 -1.3716 3.5052 -1.3716 0 24
DS 3.5052 -1.8542 3.5052 -1.651 0 24
DS 3.5052 -1.651 4.4958 -1.651 0 24
DS 4.4958 -1.651 4.4958 -1.8542 0 24
DS 4.4958 -1.8542 3.5052 -1.8542 0 24
DS 3.5052 -2.3622 3.5052 -2.1336 0 24
DS 3.5052 -2.1336 4.4958 -2.1336 0 24
DS 4.4958 -2.1336 4.4958 -2.3622 0 24
DS 4.4958 -2.3622 3.5052 -2.3622 0 24
DS 3.5052 -2.8702 3.5052 -2.6416 0 24
DS 3.5052 -2.6416 4.4958 -2.6416 0 24
DS 4.4958 -2.6416 4.4958 -2.8702 0 24
DS 4.4958 -2.8702 3.5052 -2.8702 0 24
DS -3.5052 -2.2352 -2.2352 -3.5052 0 24
DS -3.5052 3.5052 3.5052 3.5052 0 24
DS 3.5052 3.5052 3.5052 -3.5052 0 24
DS 3.5052 -3.5052 -3.5052 -3.5052 0 24
DS -3.5052 -3.5052 -3.5052 3.5052 0 24
$PAD
Sh "1" R 0.2286 1.3208 0 0 2700
At SMD N 00888000
.SolderMask 0
.SolderPaste 0
Ne 0 ""
Po -4.191 -2.7432
$EndPAD
$PAD
Sh "2" R 0.2286 1.3208 0 0 2700
At SMD N 00888000
.SolderMask 0
.SolderPaste 0
Ne 0 ""
Po -4.191 -2.2606
$EndPAD
$PAD
Sh "3" R 0.2286 1.3208 0 0 2700
At SMD N 00888000
.SolderMask 0
.SolderPaste 0
Ne 0 ""
Po -4.191 -1.7526
$EndPAD
$PAD
Sh "4" R 0.2286 1.3208 0 0 2700
At SMD N 00888000
.SolderMask 0
.SolderPaste 0
Ne 0 ""
Po -4.191 -1.2446
$EndPAD
$PAD
Sh "5" R 0.2286 1.3208 0 0 2700
At SMD N 00888000
.SolderMask 0
.SolderPaste 0
Ne 0 ""
Po -4.191 -0.762
$EndPAD
$PAD
Sh "6" R 0.2286 1.3208 0 0 2700
At SMD N 00888000
.SolderMask 0
.SolderPaste 0
Ne 0 ""
Po -4.191 -0.254
$EndPAD
$PAD
Sh "7" R 0.2286 1.3208 0 0 2700
At SMD N 00888000
.SolderMask 0
.SolderPaste 0
Ne 0 ""
Po -4.191 0.254
$EndPAD
$PAD
Sh "8" R 0.2286 1.3208 0 0 2700
At SMD N 00888000
.SolderMask 0
.SolderPaste 0
Ne 0 ""
Po -4.191 0.762
$EndPAD
$PAD
Sh "9" R 0.2286 1.3208 0 0 2700
At SMD N 00888000
.SolderMask 0
.SolderPaste 0
Ne 0 ""
Po -4.191 1.2446
$EndPAD
$PAD
Sh "10" R 0.2286 1.3208 0 0 2700
At SMD N 00888000
.SolderMask 0
.SolderPaste 0
Ne 0 ""
Po -4.191 1.7526
$EndPAD
$PAD
Sh "11" R 0.2286 1.3208 0 0 2700
At SMD N 00888000
.SolderMask 0
.SolderPaste 0
Ne 0 ""
Po -4.191 2.2606
$EndPAD
$PAD
Sh "12" R 0.2286 1.3208 0 0 2700
At SMD N 00888000
.SolderMask 0
.SolderPaste 0
Ne 0 ""
Po -4.191 2.7432
$EndPAD
$PAD
Sh "13" R 0.2286 1.3208 0 0 1800
At SMD N 00888000
.SolderMask 0
.SolderPaste 0
Ne 0 ""
Po -2.7432 4.191
$EndPAD
$PAD
Sh "14" R 0.2286 1.3208 0 0 1800
At SMD N 00888000
.SolderMask 0
.SolderPaste 0
Ne 0 ""
Po -2.2606 4.191
$EndPAD
$PAD
Sh "15" R 0.2286 1.3208 0 0 1800
At SMD N 00888000
.SolderMask 0
.SolderPaste 0
Ne 0 ""
Po -1.7526 4.191
$EndPAD
$PAD
Sh "16" R 0.2286 1.3208 0 0 1800
At SMD N 00888000
.SolderMask 0
.SolderPaste 0
Ne 0 ""
Po -1.2446 4.191
$EndPAD
$PAD
Sh "17" R 0.2286 1.3208 0 0 1800
At SMD N 00888000
.SolderMask 0
.SolderPaste 0
Ne 0 ""
Po -0.762 4.191
$EndPAD
$PAD
Sh "18" R 0.2286 1.3208 0 0 1800
At SMD N 00888000
.SolderMask 0
.SolderPaste 0
Ne 0 ""
Po -0.254 4.191
$EndPAD
$PAD
Sh "19" R 0.2286 1.3208 0 0 1800
At SMD N 00888000
.SolderMask 0
.SolderPaste 0
Ne 0 ""
Po 0.254 4.191
$EndPAD
$PAD
Sh "20" R 0.2286 1.3208 0 0 1800
At SMD N 00888000
.SolderMask 0
.SolderPaste 0
Ne 0 ""
Po 0.762 4.191
$EndPAD
$PAD
Sh "21" R 0.2286 1.3208 0 0 1800
At SMD N 00888000
.SolderMask 0
.SolderPaste 0
Ne 0 ""
Po 1.2446 4.191
$EndPAD
$PAD
Sh "22" R 0.2286 1.3208 0 0 1800
At SMD N 00888000
.SolderMask 0
.SolderPaste 0
Ne 0 ""
Po 1.7526 4.191
$EndPAD
$PAD
Sh "23" R 0.2286 1.3208 0 0 1800
At SMD N 00888000
.SolderMask 0
.SolderPaste 0
Ne 0 ""
Po 2.2606 4.191
$EndPAD
$PAD
Sh "24" R 0.2286 1.3208 0 0 1800
At SMD N 00888000
.SolderMask 0
.SolderPaste 0
Ne 0 ""
Po 2.7432 4.191
$EndPAD
$PAD
Sh "25" R 0.2286 1.3208 0 0 2700
At SMD N 00888000
.SolderMask 0
.SolderPaste 0
Ne 0 ""
Po 4.191 2.7432
$EndPAD
$PAD
Sh "26" R 0.2286 1.3208 0 0 2700
At SMD N 00888000
.SolderMask 0
.SolderPaste 0
Ne 0 ""
Po 4.191 2.2606
$EndPAD
$PAD
Sh "27" R 0.2286 1.3208 0 0 2700
At SMD N 00888000
.SolderMask 0
.SolderPaste 0
Ne 0 ""
Po 4.191 1.7526
$EndPAD
$PAD
Sh "28" R 0.2286 1.3208 0 0 2700
At SMD N 00888000
.SolderMask 0
.SolderPaste 0
Ne 0 ""
Po 4.191 1.2446
$EndPAD
$PAD
Sh "29" R 0.2286 1.3208 0 0 2700
At SMD N 00888000
.SolderMask 0
.SolderPaste 0
Ne 0 ""
Po 4.191 0.762
$EndPAD
$PAD
Sh "30" R 0.2286 1.3208 0 0 2700
At SMD N 00888000
.SolderMask 0
.SolderPaste 0
Ne 0 ""
Po 4.191 0.254
$EndPAD
$PAD
Sh "31" R 0.2286 1.3208 0 0 2700
At SMD N 00888000
.SolderMask 0
.SolderPaste 0
Ne 0 ""
Po 4.191 -0.254
$EndPAD
$PAD
Sh "32" R 0.2286 1.3208 0 0 2700
At SMD N 00888000
.SolderMask 0
.SolderPaste 0
Ne 0 ""
Po 4.191 -0.762
$EndPAD
$PAD
Sh "33" R 0.2286 1.3208 0 0 2700
At SMD N 00888000
.SolderMask 0
.SolderPaste 0
Ne 0 ""
Po 4.191 -1.2446
$EndPAD
$PAD
Sh "34" R 0.2286 1.3208 0 0 2700
At SMD N 00888000
.SolderMask 0
.SolderPaste 0
Ne 0 ""
Po 4.191 -1.7526
$EndPAD
$PAD
Sh "35" R 0.2286 1.3208 0 0 2700
At SMD N 00888000
.SolderMask 0
.SolderPaste 0
Ne 0 ""
Po 4.191 -2.2606
$EndPAD
$PAD
Sh "36" R 0.2286 1.3208 0 0 2700
At SMD N 00888000
.SolderMask 0
.SolderPaste 0
Ne 0 ""
Po 4.191 -2.7432
$EndPAD
$PAD
Sh "37" R 0.2286 1.3208 0 0 1800
At SMD N 00888000
.SolderMask 0
.SolderPaste 0
Ne 0 ""
Po 2.7432 -4.191
$EndPAD
$PAD
Sh "38" R 0.2286 1.3208 0 0 1800
At SMD N 00888000
.SolderMask 0
.SolderPaste 0
Ne 0 ""
Po 2.2606 -4.191
$EndPAD
$PAD
Sh "39" R 0.2286 1.3208 0 0 1800
At SMD N 00888000
.SolderMask 0
.SolderPaste 0
Ne 0 ""
Po 1.7526 -4.191
$EndPAD
$PAD
Sh "40" R 0.2286 1.3208 0 0 1800
At SMD N 00888000
.SolderMask 0
.SolderPaste 0
Ne 0 ""
Po 1.2446 -4.191
$EndPAD
$PAD
Sh "41" R 0.2286 1.3208 0 0 1800
At SMD N 00888000
.SolderMask 0
.SolderPaste 0
Ne 0 ""
Po 0.762 -4.191
$EndPAD
$PAD
Sh "42" R 0.2286 1.3208 0 0 1800
At SMD N 00888000
.SolderMask 0
.SolderPaste 0
Ne 0 ""
Po 0.254 -4.191
$EndPAD
$PAD
Sh "43" R 0.2286 1.3208 0 0 1800
At SMD N 00888000
.SolderMask 0
.SolderPaste 0
Ne 0 ""
Po -0.254 -4.191
$EndPAD
$PAD
Sh "44" R 0.2286 1.3208 0 0 1800
At SMD N 00888000
.SolderMask 0
.SolderPaste 0
Ne 0 ""
Po -0.762 -4.191
$EndPAD
$PAD
Sh "45" R 0.2286 1.3208 0 0 1800
At SMD N 00888000
.SolderMask 0
.SolderPaste 0
Ne 0 ""
Po -1.2446 -4.191
$EndPAD
$PAD
Sh "46" R 0.2286 1.3208 0 0 1800
At SMD N 00888000
.SolderMask 0
.SolderPaste 0
Ne 0 ""
Po -1.7526 -4.191
$EndPAD
$PAD
Sh "47" R 0.2286 1.3208 0 0 1800
At SMD N 00888000
.SolderMask 0
.SolderPaste 0
Ne 0 ""
Po -2.2606 -4.191
$EndPAD
$PAD
Sh "48" R 0.2286 1.3208 0 0 1800
At SMD N 00888000
.SolderMask 0
.SolderPaste 0
Ne 0 ""
Po -2.7432 -4.191
$EndPAD
$EndMODULE QFP50P900X900X160-48N
