EESchema Schematic File Version 2
LIBS:STM32L053-rescue
LIBS:power
LIBS:device
LIBS:switches
LIBS:relays
LIBS:motors
LIBS:transistors
LIBS:conn
LIBS:linear
LIBS:regul
LIBS:74xx
LIBS:cmos4000
LIBS:adc-dac
LIBS:memory
LIBS:xilinx
LIBS:microcontrollers
LIBS:dsp
LIBS:microchip
LIBS:analog_switches
LIBS:motorola
LIBS:texas
LIBS:intel
LIBS:audio
LIBS:interface
LIBS:digital-audio
LIBS:philips
LIBS:display
LIBS:cypress
LIBS:siliconi
LIBS:opto
LIBS:atmel
LIBS:contrib
LIBS:valves
LIBS:U.FL-R-SMT_01_
LIBS:wisol_sfm10r1
LIBS:WISOL_SFM10R1-cache
LIBS:WSSFM10R1AT
LIBS:FXOS8700CQ
LIBS:mmc3416pj-b
LIBS:STM32L053-cache
EELAYER 25 0
EELAYER END
$Descr A4 11693 8268
encoding utf-8
Sheet 1 1
Title ""
Date ""
Rev ""
Comp ""
Comment1 ""
Comment2 ""
Comment3 ""
Comment4 ""
$EndDescr
$Comp
L Conn_02x05_Odd_Even J6
U 1 1 5AB80038
P 10350 1200
F 0 "J6" H 10400 1500 50  0000 C CNN
F 1 "Conn_02x05_Odd_Even" H 10400 900 50  0000 C CNN
F 2 "Pin_Headers:Pin_Header_Straight_2x05_Pitch2.54mm" H 10350 1200 50  0001 C CNN
F 3 "" H 10350 1200 50  0001 C CNN
	1    10350 1200
	1    0    0    -1  
$EndComp
Text GLabel 9950 1000 0    50   Input ~ 0
VDD
Text GLabel 9950 1200 0    50   Input ~ 0
GND
NoConn ~ 10850 1300
NoConn ~ 9950 1300
NoConn ~ 10850 1200
Text Label 6315 1930 2    60   ~ 0
NRST
Text Label 10850 1400 0    60   ~ 0
NRST
Text Label 10850 1100 0    60   ~ 0
SWCLK
Text Label 10850 1000 0    60   ~ 0
SWDIO
Text Label 7865 880  1    60   ~ 0
SWCLK
Text Label 8315 1530 0    60   ~ 0
SWDIO
Text GLabel 9950 1400 0    50   Input ~ 0
GND
$Comp
L SW_Push SW1
U 1 1 5AB804B6
P 10200 2150
F 0 "SW1" H 10250 2250 50  0000 L CNN
F 1 "SW_Push" H 10200 2090 50  0000 C CNN
F 2 "Buttons_Switches_THT:SW_PUSH_6mm" H 10200 2350 50  0001 C CNN
F 3 "" H 10200 2350 50  0001 C CNN
	1    10200 2150
	1    0    0    -1  
$EndComp
Text Label 9750 2150 2    60   ~ 0
NRST
Text GLabel 10800 2500 2    50   Input ~ 0
GND
Text Notes 10040 1860 0    60   ~ 0
Reset switch
Text Notes 9750 850  0    60   ~ 0
JTAG Header
Text Notes 5900 800  0    60   ~ 0
STM32L053C8
Text GLabel 10600 3000 0    50   Input ~ 0
GND
Text Notes 9600 2750 0    60   ~ 0
Batterij
Text GLabel 7950 4850 0    50   Input ~ 0
GND
NoConn ~ 8900 4650
NoConn ~ 8900 4850
Text GLabel 9400 4750 3    50   Input ~ 0
GND
Text GLabel 9600 4750 3    50   Input ~ 0
GND
Text Notes 9450 5100 0    60   ~ 0
GRM32EC70J107ME15L\n
$Comp
L Conn_01x01 J5
U 1 1 5AC3E6CE
P 10200 4150
F 0 "J5" H 10200 4250 50  0000 C CNN
F 1 "Conn_01x01" H 10200 4050 50  0000 C CNN
F 2 "Pin_Headers:Pin_Header_Straight_1x01_Pitch2.54mm" H 10200 4150 50  0001 C CNN
F 3 "" H 10200 4150 50  0001 C CNN
	1    10200 4150
	0    -1   -1   0   
$EndComp
Text GLabel 10350 4750 3    50   Input ~ 0
GND
$Comp
L R R25
U 1 1 5AC3E968
P 10650 4350
F 0 "R25" V 10730 4350 50  0000 C CNN
F 1 "0R, >0.35W, 1%" V 10550 4350 50  0000 C CNN
F 2 "Resistors_SMD:R_0603" V 10580 4350 50  0001 C CNN
F 3 "" H 10650 4350 50  0001 C CNN
	1    10650 4350
	0    1    1    0   
$EndComp
Text Notes 9150 4050 0    60   ~ 0
CRCW080510R0FKEAHP
$Comp
L CP C21
U 1 1 5AC3F56F
P 10850 4550
F 0 "C21" H 10875 4650 50  0000 L CNN
F 1 "1F" H 10875 4450 50  0000 L CNN
F 2 "Capacitors_SMD:CP_Elec_4x5.8" H 10888 4400 50  0001 C CNN
F 3 "" H 10850 4550 50  0001 C CNN
	1    10850 4550
	1    0    0    -1  
$EndComp
Text GLabel 10850 4750 3    50   Input ~ 0
GND
Text GLabel 10950 4350 2    50   Input ~ 0
VDD
Text Notes 6050 4000 0    60   ~ 0
Power supply
Text GLabel 6865 880  1    50   Input ~ 0
GND
Text GLabel 6765 880  1    50   Input ~ 0
VDD
Text GLabel 7565 2880 3    50   Input ~ 0
TX
Text GLabel 7665 2880 3    50   Input ~ 0
RX
$Comp
L Conn_01x02 J4
U 1 1 5ACFD52E
P 6115 2930
F 0 "J4" H 6115 3030 50  0000 C CNN
F 1 "Conn_01x02" H 6115 2730 50  0000 C CNN
F 2 "Pin_Headers:Pin_Header_Straight_1x02_Pitch2.54mm" H 6115 2930 50  0001 C CNN
F 3 "" H 6115 2930 50  0001 C CNN
	1    6115 2930
	-1   0    0    1   
$EndComp
$Comp
L LED D6
U 1 1 5ACFE1BA
P 10200 3250
F 0 "D6" H 10200 3350 50  0000 C CNN
F 1 "LED" H 10200 3150 50  0000 C CNN
F 2 "LEDs:LED_0603" H 10200 3250 50  0001 C CNN
F 3 "" H 10200 3250 50  0001 C CNN
	1    10200 3250
	0    -1   -1   0   
$EndComp
$Comp
L GND #PWR01
U 1 1 5ACFE23F
P 10200 3450
F 0 "#PWR01" H 10200 3200 50  0001 C CNN
F 1 "GND" H 10200 3300 50  0000 C CNN
F 2 "" H 10200 3450 50  0001 C CNN
F 3 "" H 10200 3450 50  0001 C CNN
	1    10200 3450
	1    0    0    -1  
$EndComp
$Comp
L GND #PWR02
U 1 1 5ACFE296
P 10600 3150
F 0 "#PWR02" H 10600 2900 50  0001 C CNN
F 1 "GND" H 10600 3000 50  0000 C CNN
F 2 "" H 10600 3150 50  0001 C CNN
F 3 "" H 10600 3150 50  0001 C CNN
	1    10600 3150
	1    0    0    -1  
$EndComp
$Comp
L WISOL_SFM10R1 U3
U 1 1 5ADC9E41
P 4250 1750
F 0 "U3" H 4250 1800 50  0000 C CNN
F 1 "WISOL_SFM10R1" H 4250 1900 50  0000 C CNN
F 2 "WSSMF10R1AT:XCVR_WSSFM10R1AT" H 4250 2650 50  0001 C CNN
F 3 "DOCUMENTATION" H 4250 2550 50  0001 C CNN
	1    4250 1750
	1    0    0    -1  
$EndComp
NoConn ~ 5100 1450
NoConn ~ 5100 1550
NoConn ~ 5100 1650
NoConn ~ 5100 1750
NoConn ~ 5100 1850
NoConn ~ 5100 1950
Text GLabel 5300 1250 2    50   Input ~ 0
GND
Text GLabel 3300 1050 0    50   Input ~ 0
GND
Text GLabel 3200 1350 0    50   Input ~ 0
GND
NoConn ~ 3400 1550
NoConn ~ 3400 1650
NoConn ~ 3400 1750
NoConn ~ 3400 1850
Text GLabel 3200 2550 3    50   Input ~ 0
GND
Text GLabel 2950 2050 0    50   Input ~ 0
VDD
Text GLabel 9000 4850 3    50   Input ~ 0
GND
$Comp
L LED D2
U 1 1 5ADD78B2
P 4050 3400
F 0 "D2" H 4050 3500 50  0000 C CNN
F 1 "LED" H 4050 3300 50  0000 C CNN
F 2 "LEDs:LED_0603" H 4050 3400 50  0001 C CNN
F 3 "" H 4050 3400 50  0001 C CNN
	1    4050 3400
	0    -1   -1   0   
$EndComp
$Comp
L LED D3
U 1 1 5ADD7983
P 4350 3400
F 0 "D3" H 4350 3500 50  0000 C CNN
F 1 "LED" H 4350 3300 50  0000 C CNN
F 2 "LEDs:LED_0603" H 4350 3400 50  0001 C CNN
F 3 "" H 4350 3400 50  0001 C CNN
	1    4350 3400
	0    -1   -1   0   
$EndComp
$Comp
L LED D4
U 1 1 5ADD7BB4
P 5250 2750
F 0 "D4" H 5250 2850 50  0000 C CNN
F 1 "LED" H 5250 2650 50  0000 C CNN
F 2 "LEDs:LED_0603" H 5250 2750 50  0001 C CNN
F 3 "" H 5250 2750 50  0001 C CNN
	1    5250 2750
	0    -1   -1   0   
$EndComp
$Comp
L LED D5
U 1 1 5ADD7EB2
P 5500 2750
F 0 "D5" H 5500 2850 50  0000 C CNN
F 1 "LED" H 5500 2650 50  0000 C CNN
F 2 "LEDs:LED_0603" H 5500 2750 50  0001 C CNN
F 3 "" H 5500 2750 50  0001 C CNN
	1    5500 2750
	0    -1   -1   0   
$EndComp
NoConn ~ 4050 2700
Text GLabel 4650 2800 2    50   Input ~ 0
wake
Text GLabel 4650 2900 2    50   Input ~ 0
RX
Text GLabel 4650 3000 2    50   Input ~ 0
TX
Text GLabel 3700 2650 0    50   Input ~ 0
VDD
Text GLabel 3700 3700 0    50   Input ~ 0
GND
Text Label 1650 1350 2    60   ~ 0
antenne
$Comp
L U.FL-R-SMT(01) J1
U 1 1 5ADDBA64
P 1350 650
F 0 "J1" H 1199 811 50  0000 L BNN
F 1 "U.FL-R-SMT(01)" H 1179 429 50  0000 L BNN
F 2 "U.FL:HRS_U.FL-R-SMT(01)" H 1350 650 50  0001 L BNN
F 3 "None" H 1350 650 50  0001 L BNN
F 4 "Hirose" H 1350 650 50  0001 L BNN "Field4"
F 5 "U.FL-R-SMT(01)" H 1350 650 50  0001 L BNN "Field5"
F 6 "0.84 USD" H 1350 650 50  0001 L BNN "Field6"
F 7 "U.FL Series 6 Ghz 50 Ohm Ultra-small SMT Coaxial Cable Receptacle" H 1350 650 50  0001 L BNN "Field7"
F 8 "Good" H 1350 650 50  0001 L BNN "Field8"
	1    1350 650 
	-1   0    0    -1  
$EndComp
Text GLabel 1900 750  2    50   Input ~ 0
GND
Text Notes 4050 900  0    60   ~ 0
Sigfox
$Comp
L TSU104 U2
U 1 1 5ADECC7A
P 3100 4900
F 0 "U2" H 3100 5400 60  0000 C CNN
F 1 "TSU104" H 3100 4400 60  0000 C CNN
F 2 "TSU104IPT:SOP65P640X120-14N" H 3100 4400 60  0001 C CNN
F 3 "" H 3100 4400 60  0001 C CNN
	1    3100 4900
	1    0    0    -1  
$EndComp
Text GLabel 2600 4900 0    50   Input ~ 0
Vin_tsu
Text GLabel 3600 4900 2    50   Input ~ 0
GND
Text Label 3550 4800 0    60   ~ 0
R_div
Text Label 2000 5400 2    60   ~ 0
R_div
Text GLabel 3150 6150 0    50   Input ~ 0
GND
Text GLabel 3400 6150 2    50   Input ~ 0
GND
Text GLabel 1850 5000 3    60   Input ~ 0
VDD
Text GLabel 1650 5200 3    50   Input ~ 0
GND
Text GLabel 1450 5200 3    50   Input ~ 0
GND
Text GLabel 1600 4300 1    50   Input ~ 0
GND
$Comp
L D D1
U 1 1 5ADF74A6
P 2050 4400
F 0 "D1" H 2050 4500 50  0000 C CNN
F 1 "D" H 2050 4300 50  0000 C CNN
F 2 "Diodes_SMD:D_0603" H 2050 4400 50  0001 C CNN
F 3 "" H 2050 4400 50  0001 C CNN
	1    2050 4400
	0    -1   -1   0   
$EndComp
$Comp
L IMX-070 U1
U 1 1 5ADDB52A
P 750 4800
F 0 "U1" H 750 5050 60  0000 C CNN
F 1 "IRA-S210ST01" H 750 4550 60  0000 C CNN
F 2 "antenne:IRA-S210ST1" H 750 4550 60  0001 C CNN
F 3 "" H 750 4550 60  0001 C CNN
	1    750  4800
	1    0    0    -1  
$EndComp
Text GLabel 1300 4450 1    50   Input ~ 0
VDD
Text GLabel 1300 5200 3    50   Input ~ 0
GND
Text Notes 1200 4050 0    60   ~ 0
Motion sensor
Text GLabel 6150 4250 0    50   Input ~ 0
Vin
Text GLabel 6300 4800 3    50   Input ~ 0
GND
Text GLabel 6550 4800 3    50   Input ~ 0
GND
Text GLabel 7200 4800 3    50   Input ~ 0
GND
Text GLabel 7450 4800 3    50   Input ~ 0
GND
$Comp
L GND #PWR03
U 1 1 5ADD091D
P 9750 3400
F 0 "#PWR03" H 9750 3150 50  0001 C CNN
F 1 "GND" H 9750 3250 50  0000 C CNN
F 2 "" H 9750 3400 50  0001 C CNN
F 3 "" H 9750 3400 50  0001 C CNN
	1    9750 3400
	1    0    0    -1  
$EndComp
Text GLabel 9750 2900 2    50   Input ~ 0
Vin
Text GLabel 10200 2700 2    50   Input ~ 0
Vin
$Comp
L C C3
U 1 1 5ADE60C7
P 1600 4500
F 0 "C3" H 1625 4600 50  0000 L CNN
F 1 "22u" H 1625 4400 50  0000 L CNN
F 2 "Capacitors_SMD:C_0805" H 1638 4350 50  0001 C CNN
F 3 "" H 1600 4500 50  0001 C CNN
	1    1600 4500
	1    0    0    -1  
$EndComp
$Comp
L C C4
U 1 1 5ADE6157
P 1650 5000
F 0 "C4" H 1675 5100 50  0000 L CNN
F 1 "3.3n" H 1675 4900 50  0000 L CNN
F 2 "Capacitors_SMD:C_0603" H 1688 4850 50  0001 C CNN
F 3 "" H 1650 5000 50  0001 C CNN
	1    1650 5000
	1    0    0    -1  
$EndComp
$Comp
L C C6
U 1 1 5ADE61A2
P 2500 4400
F 0 "C6" H 2525 4500 50  0000 L CNN
F 1 "47n" H 2525 4300 50  0000 L CNN
F 2 "Capacitors_SMD:C_0603" H 2538 4250 50  0001 C CNN
F 3 "" H 2500 4400 50  0001 C CNN
	1    2500 4400
	1    0    0    -1  
$EndComp
$Comp
L C C12
U 1 1 5ADE6363
P 3850 4250
F 0 "C12" H 3875 4350 50  0000 L CNN
F 1 "47n" H 3875 4150 50  0000 L CNN
F 2 "Capacitors_SMD:C_0603" H 3888 4100 50  0001 C CNN
F 3 "" H 3850 4250 50  0001 C CNN
	1    3850 4250
	0    1    1    0   
$EndComp
$Comp
L C C9
U 1 1 5ADE63B6
P 3150 5950
F 0 "C9" H 3175 6050 50  0000 L CNN
F 1 "10n" H 3175 5850 50  0000 L CNN
F 2 "Capacitors_SMD:C_0603" H 3188 5800 50  0001 C CNN
F 3 "" H 3150 5950 50  0001 C CNN
	1    3150 5950
	1    0    0    -1  
$EndComp
$Comp
L R R1
U 1 1 5ADE6415
P 1450 5000
F 0 "R1" V 1530 5000 50  0000 C CNN
F 1 "56K" V 1450 5000 50  0000 C CNN
F 2 "Resistors_SMD:R_0603" V 1380 5000 50  0001 C CNN
F 3 "" H 1450 5000 50  0001 C CNN
	1    1450 5000
	1    0    0    -1  
$EndComp
$Comp
L R R2
U 1 1 5ADE6480
P 1900 4700
F 0 "R2" V 1980 4700 50  0000 C CNN
F 1 "R" V 1900 4700 50  0000 C CNN
F 2 "Resistors_SMD:R_0603" V 1830 4700 50  0001 C CNN
F 3 "" H 1900 4700 50  0001 C CNN
	1    1900 4700
	0    1    1    0   
$EndComp
$Comp
L R R8
U 1 1 5ADE64DD
P 2250 5600
F 0 "R8" V 2330 5600 50  0000 C CNN
F 1 "470K" V 2250 5600 50  0000 C CNN
F 2 "Resistors_SMD:R_0603" V 2180 5600 50  0001 C CNN
F 3 "" H 2250 5600 50  0001 C CNN
	1    2250 5600
	1    0    0    -1  
$EndComp
$Comp
L R R7
U 1 1 5ADE6548
P 2250 5200
F 0 "R7" V 2330 5200 50  0000 C CNN
F 1 "470K" V 2250 5200 50  0000 C CNN
F 2 "Resistors_SMD:R_0603" V 2180 5200 50  0001 C CNN
F 3 "" H 2250 5200 50  0001 C CNN
	1    2250 5200
	1    0    0    -1  
$EndComp
$Comp
L R R5
U 1 1 5ADE65B3
P 2050 5000
F 0 "R5" V 2130 5000 50  0000 C CNN
F 1 "220K" V 2050 5000 50  0000 C CNN
F 2 "Resistors_SMD:R_0603" V 1980 5000 50  0001 C CNN
F 3 "" H 2050 5000 50  0001 C CNN
	1    2050 5000
	0    1    1    0   
$EndComp
$Comp
L R R13
U 1 1 5ADE661A
P 3400 5950
F 0 "R13" V 3480 5950 50  0000 C CNN
F 1 "220K" V 3400 5950 50  0000 C CNN
F 2 "Resistors_SMD:R_0603" V 3330 5950 50  0001 C CNN
F 3 "" H 3400 5950 50  0001 C CNN
	1    3400 5950
	1    0    0    -1  
$EndComp
$Comp
L R R15
U 1 1 5ADE67BA
P 3850 4050
F 0 "R15" V 3930 4050 50  0000 C CNN
F 1 "680K" V 3850 4050 50  0000 C CNN
F 2 "Resistors_SMD:R_0603" V 3780 4050 50  0001 C CNN
F 3 "" H 3850 4050 50  0001 C CNN
	1    3850 4050
	0    1    1    0   
$EndComp
$Comp
L R R12
U 1 1 5ADE6A54
P 3250 4250
F 0 "R12" V 3330 4250 50  0000 C CNN
F 1 "13K" V 3250 4250 50  0000 C CNN
F 2 "Resistors_SMD:R_0603" V 3180 4250 50  0001 C CNN
F 3 "" H 3250 4250 50  0001 C CNN
	1    3250 4250
	0    1    1    0   
$EndComp
$Comp
L R R6
U 1 1 5ADE6B2B
P 2250 4400
F 0 "R6" V 2330 4400 50  0000 C CNN
F 1 "680K" V 2250 4400 50  0000 C CNN
F 2 "Resistors_SMD:R_0603" V 2180 4400 50  0001 C CNN
F 3 "" H 2250 4400 50  0001 C CNN
	1    2250 4400
	1    0    0    -1  
$EndComp
$Comp
L C C7
U 1 1 5ADE6BA8
P 2900 4250
F 0 "C7" H 2925 4350 50  0000 L CNN
F 1 "22u" H 2925 4150 50  0000 L CNN
F 2 "Capacitors_SMD:C_0805" H 2938 4100 50  0001 C CNN
F 3 "" H 2900 4250 50  0001 C CNN
	1    2900 4250
	0    1    1    0   
$EndComp
$Comp
L C C13
U 1 1 5ADE7377
P 6300 4550
F 0 "C13" H 6325 4650 50  0000 L CNN
F 1 "10uF" H 6325 4450 50  0000 L CNN
F 2 "Capacitors_SMD:C_0603" H 6338 4400 50  0001 C CNN
F 3 "" H 6300 4550 50  0001 C CNN
	1    6300 4550
	1    0    0    -1  
$EndComp
$Comp
L C C14
U 1 1 5ADE73EA
P 6550 4550
F 0 "C14" H 6575 4650 50  0000 L CNN
F 1 "100nF" H 6575 4450 50  0000 L CNN
F 2 "Capacitors_SMD:C_0603" H 6588 4400 50  0001 C CNN
F 3 "" H 6550 4550 50  0001 C CNN
	1    6550 4550
	1    0    0    -1  
$EndComp
$Comp
L C C15
U 1 1 5ADE746B
P 7200 4550
F 0 "C15" H 7225 4650 50  0000 L CNN
F 1 "10uF" H 7225 4450 50  0000 L CNN
F 2 "Capacitors_SMD:C_0603" H 7238 4400 50  0001 C CNN
F 3 "" H 7200 4550 50  0001 C CNN
	1    7200 4550
	1    0    0    -1  
$EndComp
$Comp
L C C16
U 1 1 5ADE74FA
P 7450 4550
F 0 "C16" H 7475 4650 50  0000 L CNN
F 1 "10uF" H 7475 4450 50  0000 L CNN
F 2 "Capacitors_SMD:C_0603" H 7488 4400 50  0001 C CNN
F 3 "" H 7450 4550 50  0001 C CNN
	1    7450 4550
	1    0    0    -1  
$EndComp
$Comp
L R R22
U 1 1 5ADE757D
P 6850 4450
F 0 "R22" V 6930 4450 50  0000 C CNN
F 1 "150K" V 6850 4450 50  0000 C CNN
F 2 "Resistors_SMD:R_0603" V 6780 4450 50  0001 C CNN
F 3 "" H 6850 4450 50  0001 C CNN
	1    6850 4450
	1    0    0    -1  
$EndComp
$Comp
L R R23
U 1 1 5ADE760E
P 6850 4900
F 0 "R23" V 6930 4900 50  0000 C CNN
F 1 "100K" V 6850 4900 50  0000 C CNN
F 2 "Resistors_SMD:R_0603" V 6780 4900 50  0001 C CNN
F 3 "" H 6850 4900 50  0001 C CNN
	1    6850 4900
	1    0    0    -1  
$EndComp
$Comp
L C C17
U 1 1 5ADE7BD6
P 9400 4550
F 0 "C17" H 9425 4650 50  0000 L CNN
F 1 "10uF" H 9425 4450 50  0000 L CNN
F 2 "Capacitors_SMD:C_0603" H 9438 4400 50  0001 C CNN
F 3 "" H 9400 4550 50  0001 C CNN
	1    9400 4550
	1    0    0    -1  
$EndComp
$Comp
L C C18
U 1 1 5ADE7E7F
P 9600 4550
F 0 "C18" H 9625 4650 50  0000 L CNN
F 1 "100uF" H 9625 4450 50  0000 L CNN
F 2 "Capacitors_SMD:C_0805" H 9638 4400 50  0001 C CNN
F 3 "" H 9600 4550 50  0001 C CNN
	1    9600 4550
	1    0    0    -1  
$EndComp
$Comp
L C C20
U 1 1 5ADE7F10
P 10350 4550
F 0 "C20" H 10375 4650 50  0000 L CNN
F 1 "C" H 10375 4450 50  0000 L CNN
F 2 "Capacitors_SMD:C_0603" H 10388 4400 50  0001 C CNN
F 3 "" H 10350 4550 50  0001 C CNN
	1    10350 4550
	1    0    0    -1  
$EndComp
$Comp
L L L1
U 1 1 5ADE7FB7
P 9100 4250
F 0 "L1" V 9050 4250 50  0000 C CNN
F 1 "2.2uH" V 9175 4250 50  0000 C CNN
F 2 "Inductors_SMD:L_0603" H 9100 4250 50  0001 C CNN
F 3 "" H 9100 4250 50  0001 C CNN
	1    9100 4250
	0    -1   -1   0   
$EndComp
$Comp
L L_Core_Ferrite L2
U 1 1 5ADE85E3
P 9850 4350
F 0 "L2" V 9800 4350 50  0000 C CNN
F 1 "L_Core_Ferrite" V 9960 4350 50  0000 C CNN
F 2 "Inductors_SMD:L_0603" H 9850 4350 50  0001 C CNN
F 3 "" H 9850 4350 50  0001 C CNN
	1    9850 4350
	0    -1   -1   0   
$EndComp
$Comp
L R R24
U 1 1 5ADE9197
P 10200 2900
F 0 "R24" V 10280 2900 50  0000 C CNN
F 1 "1K" V 10200 2900 50  0000 C CNN
F 2 "Resistors_SMD:R_0603" V 10130 2900 50  0001 C CNN
F 3 "" H 10200 2900 50  0001 C CNN
	1    10200 2900
	1    0    0    -1  
$EndComp
$Comp
L C C19
U 1 1 5ADE926D
P 9900 2350
F 0 "C19" H 9925 2450 50  0000 L CNN
F 1 "100nF" H 9925 2250 50  0000 L CNN
F 2 "Capacitors_SMD:C_0603" H 9938 2200 50  0001 C CNN
F 3 "" H 9900 2350 50  0001 C CNN
	1    9900 2350
	1    0    0    -1  
$EndComp
$Comp
L C C8
U 1 1 5ADE95F9
P 3000 2200
F 0 "C8" H 3025 2300 50  0000 L CNN
F 1 "10u" H 3025 2100 50  0000 L CNN
F 2 "Capacitors_SMD:C_0603" H 3038 2050 50  0001 C CNN
F 3 "" H 3000 2200 50  0001 C CNN
	1    3000 2200
	1    0    0    -1  
$EndComp
$Comp
L C C10
U 1 1 5ADE96C0
P 3200 2200
F 0 "C10" H 3225 2300 50  0000 L CNN
F 1 "100n" H 3225 2100 50  0000 L CNN
F 2 "Capacitors_SMD:C_0603" H 3238 2050 50  0001 C CNN
F 3 "" H 3200 2200 50  0001 C CNN
	1    3200 2200
	1    0    0    -1  
$EndComp
$Comp
L C C11
U 1 1 5ADE9837
P 3700 3350
F 0 "C11" H 3725 3450 50  0000 L CNN
F 1 "100n" H 3725 3250 50  0000 L CNN
F 2 "Capacitors_SMD:C_0603" H 3738 3200 50  0001 C CNN
F 3 "" H 3700 3350 50  0001 C CNN
	1    3700 3350
	1    0    0    -1  
$EndComp
$Comp
L R R14
U 1 1 5ADE98D0
P 3700 2850
F 0 "R14" V 3780 2850 50  0000 C CNN
F 1 "100K" V 3700 2850 50  0000 C CNN
F 2 "Resistors_SMD:R_0603" V 3630 2850 50  0001 C CNN
F 3 "" H 3700 2850 50  0001 C CNN
	1    3700 2850
	1    0    0    -1  
$EndComp
$Comp
L R R17
U 1 1 5ADE9A3A
P 4250 3050
F 0 "R17" V 4330 3050 50  0000 C CNN
F 1 "1K" V 4250 3050 50  0000 C CNN
F 2 "Resistors_SMD:R_0603" V 4180 3050 50  0001 C CNN
F 3 "" H 4250 3050 50  0001 C CNN
	1    4250 3050
	1    0    0    -1  
$EndComp
$Comp
L R R16
U 1 1 5ADE9CF1
P 4150 3050
F 0 "R16" V 4230 3050 50  0000 C CNN
F 1 "1K" V 4150 3050 50  0000 C CNN
F 2 "Resistors_SMD:R_0603" V 4080 3050 50  0001 C CNN
F 3 "" H 4150 3050 50  0001 C CNN
	1    4150 3050
	-1   0    0    1   
$EndComp
$Comp
L R R18
U 1 1 5ADE9DAA
P 5250 2350
F 0 "R18" V 5330 2350 50  0000 C CNN
F 1 "1K" V 5250 2350 50  0000 C CNN
F 2 "Resistors_SMD:R_0603" V 5180 2350 50  0001 C CNN
F 3 "" H 5250 2350 50  0001 C CNN
	1    5250 2350
	1    0    0    -1  
$EndComp
$Comp
L R R21
U 1 1 5ADE9E4B
P 5500 2350
F 0 "R21" V 5580 2350 50  0000 C CNN
F 1 "1K" V 5500 2350 50  0000 C CNN
F 2 "Resistors_SMD:R_0603" V 5430 2350 50  0001 C CNN
F 3 "" H 5500 2350 50  0001 C CNN
	1    5500 2350
	1    0    0    -1  
$EndComp
$Comp
L R R11
U 1 1 5ADE9EF0
P 2800 1300
F 0 "R11" V 2880 1300 50  0000 C CNN
F 1 "R" V 2800 1300 50  0000 C CNN
F 2 "Resistors_SMD:R_0603" V 2730 1300 50  0001 C CNN
F 3 "" H 2800 1300 50  0001 C CNN
	1    2800 1300
	1    0    0    -1  
$EndComp
$Comp
L R R9
U 1 1 5ADE9FA9
P 2300 1300
F 0 "R9" V 2380 1300 50  0000 C CNN
F 1 "R" V 2300 1300 50  0000 C CNN
F 2 "Resistors_SMD:R_0603" V 2230 1300 50  0001 C CNN
F 3 "" H 2300 1300 50  0001 C CNN
	1    2300 1300
	1    0    0    -1  
$EndComp
$Comp
L R R10
U 1 1 5ADEA050
P 2550 1150
F 0 "R10" V 2630 1150 50  0000 C CNN
F 1 "R" V 2550 1150 50  0000 C CNN
F 2 "Resistors_SMD:R_0603" V 2480 1150 50  0001 C CNN
F 3 "" H 2550 1150 50  0001 C CNN
	1    2550 1150
	0    1    1    0   
$EndComp
$Comp
L R R4
U 1 1 5ADEA0FF
P 2050 1150
F 0 "R4" V 2130 1150 50  0000 C CNN
F 1 "0" V 2050 1150 50  0000 C CNN
F 2 "Resistors_SMD:R_0603" V 1980 1150 50  0001 C CNN
F 3 "" H 2050 1150 50  0001 C CNN
	1    2050 1150
	0    1    1    0   
$EndComp
$Comp
L R R3
U 1 1 5ADEA1B4
P 2050 550
F 0 "R3" V 2130 550 50  0000 C CNN
F 1 "0" V 2050 550 50  0000 C CNN
F 2 "Resistors_SMD:R_0603" V 1980 550 50  0001 C CNN
F 3 "" H 2050 550 50  0001 C CNN
	1    2050 550 
	0    1    1    0   
$EndComp
Text GLabel 3300 1950 0    50   Input ~ 0
GND
Text GLabel 5250 3000 3    50   Input ~ 0
GND
Text GLabel 5500 3000 3    50   Input ~ 0
GND
Text GLabel 4050 3700 0    50   Input ~ 0
GND
Text GLabel 4350 3700 0    50   Input ~ 0
GND
$Comp
L GND #PWR04
U 1 1 5ADDC8CD
P 1750 1050
F 0 "#PWR04" H 1750 800 50  0001 C CNN
F 1 "GND" H 1750 900 50  0000 C CNN
F 2 "" H 1750 1050 50  0001 C CNN
F 3 "" H 1750 1050 50  0001 C CNN
	1    1750 1050
	0    -1   -1   0   
$EndComp
$Comp
L C C5
U 1 1 5AE1ADCA
P 2050 5600
F 0 "C5" H 2075 5700 50  0000 L CNN
F 1 "10n" H 2075 5500 50  0000 L CNN
F 2 "Capacitors_SMD:C_0603" H 2088 5450 50  0001 C CNN
F 3 "" H 2050 5600 50  0001 C CNN
	1    2050 5600
	1    0    0    -1  
$EndComp
Text GLabel 2050 5800 0    50   Input ~ 0
GND
Text GLabel 550  5550 1    50   Input ~ 0
VDD
Text GLabel 850  6000 0    50   Input ~ 0
GND
$Comp
L C C1
U 1 1 5AE1B288
P 750 5750
F 0 "C1" H 775 5850 50  0000 L CNN
F 1 "1u" H 775 5650 50  0000 L CNN
F 2 "Capacitors_SMD:C_0603" H 788 5600 50  0001 C CNN
F 3 "" H 750 5750 50  0001 C CNN
	1    750  5750
	1    0    0    -1  
$EndComp
$Comp
L C C2
U 1 1 5AE1B39F
P 1050 5750
F 0 "C2" H 1075 5850 50  0000 L CNN
F 1 "22n" H 1075 5650 50  0000 L CNN
F 2 "Capacitors_SMD:C_0603" H 1088 5600 50  0001 C CNN
F 3 "" H 1050 5750 50  0001 C CNN
	1    1050 5750
	1    0    0    -1  
$EndComp
Text GLabel 1200 5600 2    50   Input ~ 0
Vin_tsu
$Comp
L GND #PWR05
U 1 1 5AEF46FF
P 2300 1450
F 0 "#PWR05" H 2300 1200 50  0001 C CNN
F 1 "GND" H 2300 1300 50  0000 C CNN
F 2 "" H 2300 1450 50  0001 C CNN
F 3 "" H 2300 1450 50  0001 C CNN
	1    2300 1450
	1    0    0    -1  
$EndComp
$Comp
L GND #PWR06
U 1 1 5AEF489A
P 2800 1450
F 0 "#PWR06" H 2800 1200 50  0001 C CNN
F 1 "GND" H 2800 1300 50  0000 C CNN
F 2 "" H 2800 1450 50  0001 C CNN
F 3 "" H 2800 1450 50  0001 C CNN
	1    2800 1450
	1    0    0    -1  
$EndComp
$Comp
L U.FL-R-SMT(01) J3
U 1 1 5AEF53B7
P 2550 650
F 0 "J3" H 2399 811 50  0000 L BNN
F 1 "U.FL-R-SMT(01)" H 2379 429 50  0000 L BNN
F 2 "U.FL:HRS_U.FL-R-SMT(01)" H 2550 650 50  0001 L BNN
F 3 "None" H 2550 650 50  0001 L BNN
F 4 "Hirose" H 2550 650 50  0001 L BNN "Field4"
F 5 "U.FL-R-SMT(01)" H 2550 650 50  0001 L BNN "Field5"
F 6 "0.84 USD" H 2550 650 50  0001 L BNN "Field6"
F 7 "U.FL Series 6 Ghz 50 Ohm Ultra-small SMT Coaxial Cable Receptacle" H 2550 650 50  0001 L BNN "Field7"
F 8 "Good" H 2550 650 50  0001 L BNN "Field8"
	1    2550 650 
	-1   0    0    -1  
$EndComp
Text GLabel 3200 750  2    50   Input ~ 0
GND
$Comp
L TPS62740 U6
U 1 1 5AEFAC52
P 8450 4550
F 0 "U6" H 8450 4100 60  0000 C CNN
F 1 "TPS62740" H 8450 5000 60  0000 C CNN
F 2 "TPS62740DSSR:SON50P300X200X80-12N" H 8450 5000 60  0001 C CNN
F 3 "" H 8450 5000 60  0001 C CNN
	1    8450 4550
	1    0    0    -1  
$EndComp
$Comp
L Battery_Cell BT1
U 1 1 5AEFE744
P 9650 3200
F 0 "BT1" H 9750 3300 50  0000 L CNN
F 1 "Battery_Cell" H 9750 3200 50  0000 L CNN
F 2 "Battery_Holders:Keystone_2466_1xAAA" V 9650 3260 50  0001 C CNN
F 3 "" V 9650 3260 50  0001 C CNN
	1    9650 3200
	1    0    0    -1  
$EndComp
$Comp
L Battery_Cell BT2
U 1 1 5AEFE801
P 9850 3200
F 0 "BT2" H 9950 3300 50  0000 L CNN
F 1 "Battery_Cell" H 9950 3200 50  0000 L CNN
F 2 "Battery_Holders:Keystone_2466_1xAAA" V 9850 3260 50  0001 C CNN
F 3 "" V 9850 3260 50  0001 C CNN
	1    9850 3200
	1    0    0    -1  
$EndComp
$Comp
L STM32L053C8T6 U5
U 1 1 5AEF499E
P 7315 1880
F 0 "U5" H 7415 2430 60  0000 C CNN
F 1 "STM32L053C8T6" H 7315 1330 60  0000 C CNN
F 2 "STM32L053C8T6_nieuw:QFP50P900X900X160-48N" H 7415 2430 60  0001 C CNN
F 3 "" H 7415 2430 60  0001 C CNN
	1    7315 1880
	1    0    0    -1  
$EndComp
Text GLabel 8315 1630 2    50   Input ~ 0
wake
Text GLabel 7950 4450 0    50   Input ~ 0
Vsel1
Text GLabel 7950 4550 0    50   Input ~ 0
Vsel2
Text GLabel 7950 4650 0    50   Input ~ 0
Vsel3
Text GLabel 7950 4750 0    50   Input ~ 0
Vsel4
Text GLabel 7665 880  1    50   Input ~ 0
Vsel1
Text GLabel 7565 880  1    50   Input ~ 0
Vsel2
Text GLabel 7465 880  1    50   Input ~ 0
Vsel3
Text GLabel 7365 880  1    50   Input ~ 0
Vsel4
Text GLabel 7065 880  1    50   Input ~ 0
SCL
Text GLabel 6965 880  1    50   Input ~ 0
SDA
Text GLabel 6865 2880 3    50   Input ~ 0
Selectbit_0
Text GLabel 6965 2880 3    50   Input ~ 0
Selectbit_1
Text GLabel 6315 2230 0    50   Input ~ 0
VoutL
Text GLabel 6315 2330 0    50   Input ~ 0
VoutH
Text GLabel 7065 2880 3    50   Input ~ 0
Bat_Div
Text GLabel 7050 4650 1    50   Input ~ 0
Bat_Div
Text GLabel 7050 5150 1    50   Input ~ 0
Div_En
Text GLabel 7165 2880 3    50   Input ~ 0
Div_En
Text GLabel 7265 2880 3    50   Input ~ 0
Int1
Text GLabel 7365 2880 3    50   Input ~ 0
Int2
Text GLabel 3550 5200 2    50   Input ~ 0
VoutL
Text GLabel 2650 5200 0    50   Input ~ 0
VoutH
$Comp
L Conn_01x02 J2
U 1 1 5ADDC548
P 1400 1150
F 0 "J2" H 1400 1250 50  0000 C CNN
F 1 "Conn_01x02" H 1400 950 50  0000 C CNN
F 2 "antenne:antennev3" H 1400 1150 50  0001 C CNN
F 3 "" H 1400 1150 50  0001 C CNN
	1    1400 1150
	-1   0    0    1   
$EndComp
$Comp
L MMC3416PJ-B U4
U 1 1 5AF85384
P 4950 4650
F 0 "U4" H 4950 4350 60  0000 C CNN
F 1 "MMC3416PJ-B" H 4950 4900 60  0000 C CNN
F 2 "MMC3416PJ-B:MMC3416PJ-B" H 4950 4650 60  0001 C CNN
F 3 "" H 4950 4650 60  0001 C CNN
	1    4950 4650
	1    0    0    -1  
$EndComp
Text Notes 4250 4000 0    60   ~ 0
Magnetometer
Text GLabel 5500 4550 2    50   Input ~ 0
SDA
Text GLabel 5500 4650 2    50   Input ~ 0
SCL
Text GLabel 4400 4550 0    50   Input ~ 0
VDD
Text GLabel 4400 4650 0    50   Input ~ 0
VDD
Text GLabel 4400 4750 0    50   Input ~ 0
GND
NoConn ~ 5350 4750
$Comp
L R R20
U 1 1 5AF86651
P 5450 4850
F 0 "R20" V 5530 4850 50  0000 C CNN
F 1 "10K" V 5450 4850 50  0000 C CNN
F 2 "Resistors_SMD:R_0603" V 5380 4850 50  0001 C CNN
F 3 "" H 5450 4850 50  0001 C CNN
	1    5450 4850
	1    0    0    -1  
$EndComp
$Comp
L R R19
U 1 1 5AF866FC
P 5450 4350
F 0 "R19" V 5530 4350 50  0000 C CNN
F 1 "10K" V 5450 4350 50  0000 C CNN
F 2 "Resistors_SMD:R_0603" V 5380 4350 50  0001 C CNN
F 3 "" H 5450 4350 50  0001 C CNN
	1    5450 4350
	1    0    0    -1  
$EndComp
Text GLabel 5450 4150 2    50   Input ~ 0
VDD
Text GLabel 5450 5050 2    50   Input ~ 0
VDD
Text GLabel 7865 2880 3    50   Input ~ 0
VDD
Text GLabel 7765 2880 3    50   Input ~ 0
GND
Text GLabel 8315 1330 2    50   Input ~ 0
VDD
Text GLabel 8600 1430 2    50   Input ~ 0
GND
Text GLabel 6315 2130 0    50   Input ~ 0
VDD
Text GLabel 6315 2030 0    50   Input ~ 0
GND
$Comp
L R R27
U 1 1 5B20A9BB
P 9900 2000
F 0 "R27" V 9980 2000 50  0000 C CNN
F 1 "100K" V 9900 2000 50  0000 C CNN
F 2 "Resistors_SMD:R_0603" V 9830 2000 50  0001 C CNN
F 3 "" H 9900 2000 50  0001 C CNN
	1    9900 2000
	1    0    0    -1  
$EndComp
Text GLabel 9900 1850 1    50   Input ~ 0
VDD
Connection ~ 10050 1200
Wire Wire Line
	10050 1100 10050 1200
Wire Wire Line
	10150 1100 10050 1100
Wire Wire Line
	10650 1400 10850 1400
Wire Wire Line
	10650 1300 10850 1300
Wire Wire Line
	10650 1200 10850 1200
Wire Wire Line
	10650 1100 10850 1100
Wire Wire Line
	10650 1000 10850 1000
Wire Wire Line
	10150 1400 9950 1400
Wire Wire Line
	10150 1300 9950 1300
Wire Wire Line
	9950 1200 10150 1200
Wire Wire Line
	9950 1000 10150 1000
Wire Wire Line
	9750 2150 10000 2150
Connection ~ 9900 2150
Wire Wire Line
	10400 2150 10600 2150
Wire Wire Line
	10600 2150 10600 2500
Wire Wire Line
	9900 2500 10800 2500
Connection ~ 10600 2500
Wire Wire Line
	9900 2150 9900 2200
Wire Wire Line
	10600 3000 10600 3150
Wire Notes Line
	9500 1600 11250 1600
Wire Notes Line
	9500 2600 11250 2600
Wire Notes Line
	9500 3700 11250 3700
Wire Wire Line
	8000 4450 7950 4450
Wire Wire Line
	8000 4550 7950 4550
Wire Wire Line
	8000 4650 7950 4650
Wire Wire Line
	8000 4750 7950 4750
Wire Wire Line
	8000 4850 7950 4850
Wire Wire Line
	6150 4250 8000 4250
Wire Wire Line
	7900 4350 7900 4250
Connection ~ 7900 4250
Wire Wire Line
	7900 4350 8000 4350
Wire Notes Line
	9500 3850 9500 450 
Wire Wire Line
	8900 4750 9000 4750
Wire Wire Line
	8950 4250 8900 4250
Wire Wire Line
	9250 4250 9350 4250
Wire Wire Line
	8900 4350 9700 4350
Wire Wire Line
	9600 4350 9600 4400
Wire Wire Line
	9400 4700 9400 4750
Wire Wire Line
	9600 4700 9600 4750
Connection ~ 9600 4350
Wire Wire Line
	10000 4350 10500 4350
Connection ~ 10200 4350
Wire Wire Line
	10350 4350 10350 4400
Wire Wire Line
	10350 4700 10350 4750
Connection ~ 10350 4350
Wire Wire Line
	10850 4700 10850 4750
Wire Wire Line
	6315 2430 6315 2830
Wire Wire Line
	6765 2880 6765 2930
Wire Wire Line
	6765 2930 6315 2930
Wire Wire Line
	10200 3400 10200 3450
Wire Wire Line
	3400 1050 3300 1050
Wire Wire Line
	3400 1250 3300 1250
Wire Wire Line
	3300 1250 3300 1450
Wire Wire Line
	3200 1350 3400 1350
Wire Wire Line
	3300 1450 3400 1450
Connection ~ 3300 1350
Wire Wire Line
	5100 1050 5200 1050
Wire Wire Line
	5200 1050 5200 1350
Wire Wire Line
	5200 1150 5100 1150
Connection ~ 5200 1150
Wire Wire Line
	5100 1250 5300 1250
Wire Wire Line
	5200 1350 5100 1350
Connection ~ 5200 1250
Wire Wire Line
	3400 1950 3300 1950
Wire Wire Line
	2950 2050 3400 2050
Wire Wire Line
	3400 2400 3400 2150
Wire Wire Line
	3000 2400 3400 2400
Wire Wire Line
	3000 2400 3000 2350
Wire Wire Line
	3200 2350 3200 2550
Connection ~ 3200 2400
Wire Wire Line
	9000 4750 9000 4850
Wire Wire Line
	10800 4350 10950 4350
Wire Wire Line
	10850 4350 10850 4400
Connection ~ 10850 4350
Wire Notes Line
	450  3850 9500 3850
Wire Wire Line
	5100 2150 5250 2150
Wire Wire Line
	5250 2150 5250 2200
Wire Wire Line
	5100 2050 5500 2050
Wire Wire Line
	5500 2050 5500 2200
Wire Wire Line
	5250 2500 5250 2600
Wire Wire Line
	5500 2600 5500 2500
Wire Wire Line
	5250 2900 5250 3000
Wire Wire Line
	5500 2900 5500 3000
Wire Wire Line
	4550 2700 4550 2800
Wire Wire Line
	4550 2800 4650 2800
Wire Wire Line
	4450 2700 4450 2900
Wire Wire Line
	4450 2900 4650 2900
Wire Wire Line
	4350 2700 4350 3000
Wire Wire Line
	4350 3000 4650 3000
Wire Wire Line
	4150 2900 4150 2700
Wire Wire Line
	4250 2700 4250 2900
Wire Wire Line
	4250 3200 4250 3250
Wire Wire Line
	4250 3250 4350 3250
Wire Wire Line
	4050 3250 4150 3250
Wire Wire Line
	4150 3250 4150 3200
Wire Wire Line
	3950 2700 3950 3100
Wire Wire Line
	3950 3100 3700 3100
Wire Wire Line
	3700 3000 3700 3200
Connection ~ 3700 3100
Wire Wire Line
	3700 2700 3700 2650
Wire Wire Line
	3700 3500 3700 3700
Wire Wire Line
	2650 4900 2600 4900
Wire Wire Line
	3550 4900 3600 4900
Wire Wire Line
	2250 5350 2250 5450
Wire Wire Line
	2000 5400 2250 5400
Connection ~ 2250 5400
Wire Wire Line
	2250 5750 3850 5750
Wire Wire Line
	3850 5750 3850 5100
Wire Wire Line
	3850 5100 3550 5100
Wire Wire Line
	3150 5800 3150 5750
Connection ~ 3150 5750
Wire Wire Line
	3400 5800 3400 5750
Connection ~ 3400 5750
Wire Wire Line
	3400 6100 3400 6150
Wire Wire Line
	3150 6100 3150 6150
Wire Wire Line
	2200 5000 2650 5000
Wire Wire Line
	2250 5000 2250 5050
Connection ~ 2250 5000
Wire Wire Line
	1900 5000 1850 5000
Wire Wire Line
	1150 4800 2650 4800
Wire Wire Line
	1450 4850 1450 4800
Connection ~ 1450 4800
Wire Wire Line
	1650 4850 1650 4800
Connection ~ 1650 4800
Wire Wire Line
	1450 5150 1450 5200
Wire Wire Line
	1650 5150 1650 5200
Wire Wire Line
	2050 4700 2650 4700
Wire Wire Line
	1600 4350 1600 4300
Wire Wire Line
	1600 4700 1750 4700
Wire Wire Line
	2650 5100 2350 5100
Wire Wire Line
	2350 5100 2350 5350
Wire Wire Line
	2350 5350 4050 5350
Wire Wire Line
	4050 5350 4050 4050
Wire Wire Line
	4050 5000 3550 5000
Wire Wire Line
	4050 4600 3550 4600
Connection ~ 4050 5000
Wire Wire Line
	3650 4700 3550 4700
Wire Wire Line
	3650 4050 3650 4700
Wire Wire Line
	3400 4250 3700 4250
Wire Wire Line
	3700 4050 3650 4050
Connection ~ 3650 4250
Wire Wire Line
	4050 4250 4000 4250
Connection ~ 4050 4600
Wire Wire Line
	4050 4050 4000 4050
Connection ~ 4050 4250
Wire Wire Line
	3100 4250 3050 4250
Wire Wire Line
	2050 4250 2750 4250
Connection ~ 2500 4250
Connection ~ 2250 4250
Wire Wire Line
	2050 4550 2500 4550
Connection ~ 2250 4550
Wire Wire Line
	2650 4250 2650 4600
Connection ~ 2650 4250
Wire Wire Line
	2500 4550 2500 4700
Connection ~ 2500 4700
Wire Wire Line
	1600 4650 1600 4700
Wire Wire Line
	1150 4700 1300 4700
Wire Wire Line
	1300 4700 1300 4450
Wire Wire Line
	1150 4900 1300 4900
Wire Wire Line
	1300 4900 1300 5200
Wire Notes Line
	4150 3850 4150 6450
Wire Wire Line
	6300 4250 6300 4400
Wire Wire Line
	6300 4700 6300 4800
Wire Wire Line
	6550 4250 6550 4400
Connection ~ 6300 4250
Wire Wire Line
	6550 4700 6550 4800
Wire Wire Line
	6850 4250 6850 4300
Connection ~ 6550 4250
Wire Wire Line
	6850 4600 6850 4750
Wire Wire Line
	6850 5050 6850 5150
Wire Wire Line
	6850 4650 7050 4650
Connection ~ 6850 4650
Wire Wire Line
	7200 4250 7200 4400
Wire Wire Line
	7200 4700 7200 4800
Wire Wire Line
	7450 4250 7450 4400
Wire Wire Line
	7450 4700 7450 4800
Connection ~ 6850 4250
Connection ~ 7200 4250
Connection ~ 7450 4250
Wire Wire Line
	6850 5150 7050 5150
Connection ~ 3000 2050
Connection ~ 3200 2050
Wire Wire Line
	9750 3350 9750 3400
Wire Wire Line
	10200 3050 10200 3100
Wire Wire Line
	10200 2750 10200 2700
Wire Wire Line
	9750 3000 9750 2900
Connection ~ 9350 4350
Wire Wire Line
	9350 4250 9350 4350
Wire Wire Line
	9400 4350 9400 4400
Connection ~ 9400 4350
Wire Wire Line
	4050 3550 4050 3700
Wire Wire Line
	4350 3550 4350 3700
Wire Wire Line
	550  5600 1200 5600
Wire Wire Line
	750  5900 1050 5900
Wire Wire Line
	900  6000 900  5900
Connection ~ 900  5900
Wire Wire Line
	900  6000 850  6000
Wire Wire Line
	2050 5450 2050 5400
Connection ~ 2050 5400
Wire Wire Line
	2050 5750 2050 5800
Wire Wire Line
	550  5550 550  5600
Connection ~ 750  5600
Connection ~ 1050 5600
Wire Wire Line
	2700 1150 3400 1150
Wire Wire Line
	2200 1150 2400 1150
Connection ~ 2300 1150
Connection ~ 2800 1150
Wire Wire Line
	1900 1150 1600 1150
Wire Wire Line
	1750 750  1900 750 
Wire Wire Line
	1750 550  1900 550 
Wire Wire Line
	2200 550  2300 550 
Wire Wire Line
	2300 550  2300 1150
Wire Wire Line
	2950 550  3050 550 
Wire Wire Line
	3050 550  3050 1150
Connection ~ 3050 1150
Wire Wire Line
	2950 750  3200 750 
Wire Notes Line
	5800 6450 5800 450 
Wire Wire Line
	9650 3000 9850 3000
Connection ~ 9750 3000
Wire Wire Line
	9650 3300 9650 3350
Wire Wire Line
	9650 3350 9850 3350
Wire Wire Line
	9850 3350 9850 3300
Connection ~ 9750 3350
Wire Wire Line
	1600 1050 1750 1050
Wire Wire Line
	4550 4550 4400 4550
Wire Wire Line
	4550 4650 4400 4650
Wire Wire Line
	4550 4750 4400 4750
Wire Wire Line
	5350 4550 5500 4550
Wire Wire Line
	5350 4650 5500 4650
Wire Wire Line
	5450 4700 5450 4650
Connection ~ 5450 4650
Wire Wire Line
	5450 5000 5450 5050
Wire Wire Line
	5450 4500 5450 4550
Connection ~ 5450 4550
Wire Wire Line
	5450 4150 5450 4200
Wire Notes Line
	450  6450 11250 6450
Wire Wire Line
	8315 1430 8600 1430
NoConn ~ 7465 2880
NoConn ~ 8315 2430
NoConn ~ 8315 2330
NoConn ~ 8315 2230
NoConn ~ 8315 2130
NoConn ~ 8315 2030
NoConn ~ 8315 1930
NoConn ~ 8315 1830
NoConn ~ 8315 1730
NoConn ~ 7765 880 
NoConn ~ 7265 880 
NoConn ~ 6315 1330
NoConn ~ 6315 1430
NoConn ~ 6315 1530
NoConn ~ 6315 1630
NoConn ~ 6315 1730
NoConn ~ 6315 1830
$Comp
L R R26
U 1 1 5B2183E0
P 7165 730
F 0 "R26" V 7245 730 50  0000 C CNN
F 1 "10K" V 7165 730 50  0000 C CNN
F 2 "Resistors_SMD:R_0603" V 7095 730 50  0001 C CNN
F 3 "" H 7165 730 50  0001 C CNN
	1    7165 730 
	1    0    0    -1  
$EndComp
Text GLabel 7130 580  0    50   Input ~ 0
GND
Wire Wire Line
	7165 580  7130 580 
Connection ~ 8970 3415
Connection ~ 8970 3115
$Comp
L C C25
U 1 1 5B2100BB
P 9195 3265
F 0 "C25" H 9220 3365 50  0000 L CNN
F 1 "100nF" H 9220 3165 50  0000 L CNN
F 2 "Capacitors_SMD:C_0603" H 9233 3115 50  0001 C CNN
F 3 "" H 9195 3265 50  0001 C CNN
	1    9195 3265
	1    0    0    -1  
$EndComp
Connection ~ 8855 3415
Wire Wire Line
	8855 3475 8855 3415
Connection ~ 8740 3415
Wire Wire Line
	8520 3415 9195 3415
Wire Wire Line
	8860 3115 8860 3050
Wire Wire Line
	8520 3115 9195 3115
Text GLabel 8855 3475 3    50   Input ~ 0
GND
$Comp
L C C24
U 1 1 5B20EB78
P 8970 3265
F 0 "C24" H 8995 3365 50  0000 L CNN
F 1 "100nF" H 8995 3165 50  0000 L CNN
F 2 "Capacitors_SMD:C_0603" H 9008 3115 50  0001 C CNN
F 3 "" H 8970 3265 50  0001 C CNN
	1    8970 3265
	1    0    0    -1  
$EndComp
Text GLabel 8860 3050 1    50   Input ~ 0
VDD
Connection ~ 8740 3115
Connection ~ 8860 3115
$Comp
L C C22
U 1 1 5B2102A3
P 8520 3265
F 0 "C22" H 8545 3365 50  0000 L CNN
F 1 "100nF" H 8545 3165 50  0000 L CNN
F 2 "Capacitors_SMD:C_0603" H 8558 3115 50  0001 C CNN
F 3 "" H 8520 3265 50  0001 C CNN
	1    8520 3265
	1    0    0    -1  
$EndComp
$Comp
L C C23
U 1 1 5B2101BE
P 8740 3265
F 0 "C23" H 8765 3365 50  0000 L CNN
F 1 "100nF" H 8765 3165 50  0000 L CNN
F 2 "Capacitors_SMD:C_0603" H 8778 3115 50  0001 C CNN
F 3 "" H 8740 3265 50  0001 C CNN
	1    8740 3265
	1    0    0    -1  
$EndComp
Text Notes 7750 3800 0    60   ~ 0
Decoupling capacitors microcontroller
$Comp
L C C26
U 1 1 5B349B8A
P 1050 4500
F 0 "C26" H 1075 4600 50  0000 L CNN
F 1 "100nF" H 1075 4400 50  0000 L CNN
F 2 "Capacitors_SMD:C_0603" H 1088 4350 50  0001 C CNN
F 3 "" H 1050 4500 50  0001 C CNN
	1    1050 4500
	0    -1   -1   0   
$EndComp
Text GLabel 900  4500 0    50   Input ~ 0
GND
Wire Wire Line
	1200 4500 1300 4500
Connection ~ 1300 4500
$EndSCHEMATC
