PCBNEW-LibModule-V1  
# encoding utf-8
Units mm
$INDEX
SON50P300X200X80-12N
$EndINDEX
$MODULE SON50P300X200X80-12N
Po 0 0 0 15 00000000 00000000 ~~
Li SON50P300X200X80-12N
Cd 
Sc 00000000
At SMD
Op 0 0 0
.SolderMask 0
.SolderPaste 0
T0 0.789902 -2.48754 1.05316 1.05316 0 0.05 N V 21 "SON50P300X200X80-12N"
T1 1.45847 2.48728 1.05303 1.05303 0 0.05 N V 21 "VAL**"
DP 0 0 0 0 4 0.381 19
Dl -0.222956 -0.688
Dl 0.212 -0.688
Dl 0.212 0.723563
Dl -0.222956 0.723563
DC -1.735 -1.52 -1.535 -1.52 0 21
DC -1.735 -1.52 -1.535 -1.52 0 24
DS -1 -1.5 1 -1.5 0.127 24
DS -1 1.5 1 1.5 0.127 24
DS -1 -1.5 1 -1.5 0.127 21
DS -1 1.5 1 1.5 0.127 21
DS -1 -1.5 -1 1.5 0.127 24
DS 1 -1.5 1 1.5 0.127 24
DS -1.615 -1.75 1.615 -1.75 0.05 24
DS -1.615 1.75 1.615 1.75 0.05 24
DS -1.615 -1.75 -1.615 1.75 0.05 24
DS 1.615 -1.75 1.615 1.75 0.05 24
$PAD
Sh "1" R 0.74 0.27 0 0 0
At SMD N 00888000
.SolderMask 0
.SolderPaste 0
Ne 0 ""
Po -0.995 -1.25
$EndPAD
$PAD
Sh "2" R 0.74 0.27 0 0 0
At SMD N 00888000
.SolderMask 0
.SolderPaste 0
Ne 0 ""
Po -0.995 -0.75
$EndPAD
$PAD
Sh "3" R 0.74 0.27 0 0 0
At SMD N 00888000
.SolderMask 0
.SolderPaste 0
Ne 0 ""
Po -0.995 -0.25
$EndPAD
$PAD
Sh "4" R 0.74 0.27 0 0 0
At SMD N 00888000
.SolderMask 0
.SolderPaste 0
Ne 0 ""
Po -0.995 0.25
$EndPAD
$PAD
Sh "5" R 0.74 0.27 0 0 0
At SMD N 00888000
.SolderMask 0
.SolderPaste 0
Ne 0 ""
Po -0.995 0.75
$EndPAD
$PAD
Sh "6" R 0.74 0.27 0 0 0
At SMD N 00888000
.SolderMask 0
.SolderPaste 0
Ne 0 ""
Po -0.995 1.25
$EndPAD
$PAD
Sh "7" R 0.74 0.27 0 0 0
At SMD N 00888000
.SolderMask 0
.SolderPaste 0
Ne 0 ""
Po 0.995 1.25
$EndPAD
$PAD
Sh "8" R 0.74 0.27 0 0 0
At SMD N 00888000
.SolderMask 0
.SolderPaste 0
Ne 0 ""
Po 0.995 0.75
$EndPAD
$PAD
Sh "9" R 0.74 0.27 0 0 0
At SMD N 00888000
.SolderMask 0
.SolderPaste 0
Ne 0 ""
Po 0.995 0.25
$EndPAD
$PAD
Sh "10" R 0.74 0.27 0 0 0
At SMD N 00888000
.SolderMask 0
.SolderPaste 0
Ne 0 ""
Po 0.995 -0.25
$EndPAD
$PAD
Sh "11" R 0.74 0.27 0 0 0
At SMD N 00888000
.SolderMask 0
.SolderPaste 0
Ne 0 ""
Po 0.995 -0.75
$EndPAD
$PAD
Sh "12" R 0.74 0.27 0 0 0
At SMD N 00888000
.SolderMask 0
.SolderPaste 0
Ne 0 ""
Po 0.995 -1.25
$EndPAD
$PAD
Sh "13" R 0.85 2.75 0 0 0
At SMD N 00888000
.SolderMask 0
Ne 0 ""
Po 0 0
$EndPAD
$EndMODULE SON50P300X200X80-12N
