(module IRA-S210ST1 (layer F.Cu) (tedit 5AEF85A6)
  (fp_text reference REF** (at 0 5.588) (layer F.SilkS)
    (effects (font (size 1 1) (thickness 0.15)))
  )
  (fp_text value IRA-S210ST1 (at 0.254 -3.556) (layer F.Fab)
    (effects (font (size 1 1) (thickness 0.15)))
  )
  (pad 3 thru_hole circle (at -2.54 0) (size 1.524 1.524) (drill 0.762) (layers *.Cu *.Mask))
  (pad 1 thru_hole circle (at 2.54 0) (size 1.524 1.524) (drill 0.762) (layers *.Cu *.Mask))
  (pad 2 thru_hole circle (at 0 2.54) (size 1.524 1.524) (drill 0.762) (layers *.Cu *.Mask))
)
